source/test12UARTup_PingPong_LoadedRAM/simulation/qsim/test12.msim.vcd
$comment
	File created using the following command:
		vcd file test12.msim.vcd -direction
$end
$date
	Sun Aug 07 23:26:50 2016
$end
$version
	ModelSim Version 10.4d
$end
$timescale
	1ps
$end

$scope module test12_vlg_vec_tst $end
$var reg 1 ! PinRX $end
$var reg 1 " clk $end
$var wire 1 # PinTX $end
$var wire 1 $ debugLED $end

$scope module i1 $end
$var wire 1 % gnd $end
$var wire 1 & vcc $end
$var wire 1 ' unknown $end
$var tri1 1 ( devclrn $end
$var tri1 1 ) devpor $end
$var tri1 1 * devoe $end
$var wire 1 + ~QUARTUS_CREATED_GND~I_combout $end
$var wire 1 , clk~input_o $end
$var wire 1 - clk~inputCLKENA0_outclk $end
$var wire 1 . PinRX~input_o $end
$var wire 1 / comb_18|clok2048MbodCounterRX[0]~3_combout $end
$var wire 1 0 comb_18|clok2048MbodCounterRX[1]~4_combout $end
$var wire 1 1 comb_18|clok2048MbodCounterRX[2]~5_combout $end
$var wire 1 2 comb_18|dataCounter~0_combout $end
$var wire 1 3 comb_18|Add0~0_combout $end
$var wire 1 4 comb_18|clok2048MbodCounterRX[3]~0_combout $end
$var wire 1 5 comb_18|clok2048MbodCounterRX[4]~1_combout $end
$var wire 1 6 comb_18|clok2048MbodCounterRX[4]~2_combout $end
$var wire 1 7 comb_18|Equal3~0_combout $end
$var wire 1 8 comb_18|dataCounter~3_combout $end
$var wire 1 9 comb_18|dataCounter~4_combout $end
$var wire 1 : comb_18|dataCounter~7_combout $end
$var wire 1 ; comb_18|dataCounter~1_combout $end
$var wire 1 < comb_18|Equal1~0_combout $end
$var wire 1 = comb_18|dataCounter~2_combout $end
$var wire 1 > comb_18|dataCounter~5_combout $end
$var wire 1 ? comb_18|dataCounter~6_combout $end
$var wire 1 @ comb_18|always0~1_combout $end
$var wire 1 A comb_18|flagOUT_DataResive~0_combout $end
$var wire 1 B comb_18|flagOUT_DataResive~1_combout $end
$var wire 1 C comb_18|flagOUT_DataResive~q $end
$var wire 1 D ActionDataTransmitToUART~2_combout $end
$var wire 1 E ActionDataTransmitToUART[1]~1_combout $end
$var wire 1 F ActionDataTransmitToUART[0]~0_combout $end
$var wire 1 G comb_18|dataCounterTX[0]~DUPLICATE_q $end
$var wire 1 H comb_18|clok2048MbodCounterTX[1]~1_combout $end
$var wire 1 I comb_18|clok2048MbodCounterTX[2]~0_combout $end
$var wire 1 J comb_18|clok2048MbodCounterTX[3]~4_combout $end
$var wire 1 K comb_18|clok2048MbodCounterTX[0]~2_combout $end
$var wire 1 L comb_18|clok2048MbodCounterTX[0]~DUPLICATE_q $end
$var wire 1 M comb_18|clok2048MbodCounterTX[2]~DUPLICATE_q $end
$var wire 1 N comb_18|clok2048MbodCounterTX[4]~3_combout $end
$var wire 1 O comb_18|Equal7~0_combout $end
$var wire 1 P comb_18|dataCounterTX[2]~5_combout $end
$var wire 1 Q comb_18|dataCounterTX[2]~DUPLICATE_q $end
$var wire 1 R comb_18|Equal10~0_combout $end
$var wire 1 S comb_18|dataCounterTX~3_combout $end
$var wire 1 T comb_18|Equal10~1_combout $end
$var wire 1 U comb_18|Equal7~1_combout $end
$var wire 1 V comb_18|shiftRegTX~0_combout $end
$var wire 1 W comb_18|dataCounterTX~4_combout $end
$var wire 1 X comb_18|dataCounterTX~0_combout $end
$var wire 1 Y comb_18|dataCounterTX~1_combout $end
$var wire 1 Z comb_18|shiftRegTX[0]~1_combout $end
$var wire 1 [ comb_18|dataCounterTX~2_combout $end
$var wire 1 \ comb_18|dataCounterTX~6_combout $end
$var wire 1 ] comb_18|dataCounterTX[1]~DUPLICATE_q $end
$var wire 1 ^ comb_18|PinTX~0_combout $end
$var wire 1 _ comb_18|always0~0_combout $end
$var wire 1 ` comb_18|dataIN[0]~0_combout $end
$var wire 1 a comb_18|dataIN[1]~DUPLICATE_q $end
$var wire 1 b comb_18|shiftRegTX~10_combout $end
$var wire 1 c comb_18|shiftRegTX~9_combout $end
$var wire 1 d comb_18|shiftRegTX[0]~3_combout $end
$var wire 1 e comb_18|shiftRegTX~8_combout $end
$var wire 1 f comb_18|shiftRegTX~7_combout $end
$var wire 1 g comb_18|shiftRegTX~6_combout $end
$var wire 1 h comb_18|shiftRegTX~5_combout $end
$var wire 1 i comb_18|shiftRegTX~4_combout $end
$var wire 1 j comb_18|shiftRegTX~2_combout $end
$var wire 1 k comb_18|PinTX~1_combout $end
$var wire 1 l comb_18|PinTX~2_combout $end
$var wire 1 m comb_18|PinTX~q $end
$var wire 1 n comb_18|clok2048MbodCounterTX [4] $end
$var wire 1 o comb_18|clok2048MbodCounterTX [3] $end
$var wire 1 p comb_18|clok2048MbodCounterTX [2] $end
$var wire 1 q comb_18|clok2048MbodCounterTX [1] $end
$var wire 1 r comb_18|clok2048MbodCounterTX [0] $end
$var wire 1 s comb_18|dataCounterTX [3] $end
$var wire 1 t comb_18|dataCounterTX [2] $end
$var wire 1 u comb_18|dataCounterTX [1] $end
$var wire 1 v comb_18|dataCounterTX [0] $end
$var wire 1 w comb_18|clok2048MbodCounterRX [4] $end
$var wire 1 x comb_18|clok2048MbodCounterRX [3] $end
$var wire 1 y comb_18|clok2048MbodCounterRX [2] $end
$var wire 1 z comb_18|clok2048MbodCounterRX [1] $end
$var wire 1 { comb_18|clok2048MbodCounterRX [0] $end
$var wire 1 | ActionDataTransmitToUART [2] $end
$var wire 1 } ActionDataTransmitToUART [1] $end
$var wire 1 ~ ActionDataTransmitToUART [0] $end
$var wire 1 !! comb_18|shiftRegTX [7] $end
$var wire 1 "! comb_18|shiftRegTX [6] $end
$var wire 1 #! comb_18|shiftRegTX [5] $end
$var wire 1 $! comb_18|shiftRegTX [4] $end
$var wire 1 %! comb_18|shiftRegTX [3] $end
$var wire 1 &! comb_18|shiftRegTX [2] $end
$var wire 1 '! comb_18|shiftRegTX [1] $end
$var wire 1 (! comb_18|shiftRegTX [0] $end
$var wire 1 )! comb_18|dataIN [7] $end
$var wire 1 *! comb_18|dataIN [6] $end
$var wire 1 +! comb_18|dataIN [5] $end
$var wire 1 ,! comb_18|dataIN [4] $end
$var wire 1 -! comb_18|dataIN [3] $end
$var wire 1 .! comb_18|dataIN [2] $end
$var wire 1 /! comb_18|dataIN [1] $end
$var wire 1 0! comb_18|dataIN [0] $end
$var wire 1 1! comb_18|dataCounter [3] $end
$var wire 1 2! comb_18|dataCounter [2] $end
$var wire 1 3! comb_18|dataCounter [1] $end
$var wire 1 4! comb_18|dataCounter [0] $end
$upscope $end
$upscope $end
$enddefinitions $end
#0
$dumpvars
1!
0"
1#
0$
0%
1&
x'
1(
1)
1*
0+
0,
0-
1.
1/
00
01
02
03
04
05
06
07
08
09
0:
1;
1<
0=
0>
0?
1@
0A
0B
0C
0D
0E
0F
0G
0H
0I
0J
1K
0L
0M
0N
0O
0P
0Q
0R
0S
1T
0U
0V
0W
1X
0Y
0Z
0[
0\
0]
1^
0_
0`
0a
0b
0c
0d
0e
0f
0g
0h
0i
0j
0k
0l
0m
0r
0q
0p
0o
0n
0v
0u
0t
0s
0{
0z
0y
0x
0w
0~
0}
0|
0(!
0'!
0&!
0%!
0$!
0#!
0"!
0!!
00!
0/!
0.!
0-!
0,!
0+!
0*!
0)!
04!
03!
02!
01!
$end
#10000
1"
1,
1-
1L
1r
1{
1H
0K
10
0/
#20000
0"
0,
0-
#30000
1"
1,
1-
0L
1q
0r
1z
0{
1K
1/
#40000
0"
0,
0-
#50000
1"
1,
1-
1L
1r
1{
0H
0K
11
00
0/
1I
#60000
0"
0,
0-
#70000
1"
1,
1-
1M
0L
1p
0q
0r
1y
0z
0{
1K
1/
#80000
0"
0,
0-
#90000
1"
1,
1-
1L
1r
1{
1H
0K
10
0/
#100000
0"
0,
0-
#110000
1"
1,
1-
0L
1q
0r
1z
0{
1K
1/
#120000
0"
0,
0-
#130000
1"
1,
1-
1L
1r
1{
13
1J
0H
0K
01
00
0/
0I
14
#140000
0"
0,
0-
#150000
1"
1,
1-
0M
0L
1o
0p
0q
0r
1x
0y
0z
0{
1K
1/
#160000
0"
0,
0-
#170000
1"
1,
1-
1L
1r
1{
1H
0K
10
0/
#180000
0"
0,
0-
#190000
1"
1,
1-
0L
1q
0r
1z
0{
1K
1/
#200000
0"
0,
0-
#210000
1"
1,
1-
1L
1r
1{
0H
0K
11
00
0/
1I
#220000
0"
0,
0-
#230000
1"
1,
1-
1M
0L
1p
0q
0r
1y
0z
0{
1K
1/
#240000
0"
0,
0-
#250000
1"
1,
1-
1L
1r
1{
1H
0K
10
0/
#260000
0"
0,
0-
#270000
1"
1,
1-
0L
1q
0r
1z
0{
1K
1/
#280000
0"
0,
0-
#290000
1"
1,
1-
1L
1r
1{
15
03
0J
0H
1N
0K
01
00
0/
0I
04
16
#300000
0"
0,
0-
#310000
1"
1,
1-
1n
0M
0L
0o
0p
0q
0r
1w
0x
0y
0z
0{
1K
1/
#320000
0"
0,
0-
#330000
1"
1,
1-
1L
1r
1{
1H
0K
10
0/
#340000
0"
0,
0-
#350000
1"
1,
1-
0L
1q
0r
1z
0{
1K
1/
#360000
0"
0,
0-
#370000
1"
1,
1-
1L
1r
1{
0H
0K
11
00
0/
1I
#380000
0"
0,
0-
#390000
1"
1,
1-
1M
0L
1p
0q
0r
1y
0z
0{
1K
1/
#400000
0"
0,
0-
#410000
1"
1,
1-
1L
1r
1{
1H
0K
10
0/
#420000
0"
0,
0-
#430000
1"
1,
1-
0L
1q
0r
1z
0{
1K
1/
#440000
0"
0,
0-
#450000
1"
1,
1-
1L
1r
1{
13
1J
0H
0K
01
00
0/
0I
14
#460000
0"
0,
0-
#470000
1"
1,
1-
0M
0L
1o
0p
0q
0r
1x
0y
0z
0{
05
12
17
0J
1O
0N
1U
1/
06
04
0/
#480000
0"
0,
0-
#488281
0!
0.
#490000
1"
1,
1-
0n
0o
0w
0x
07
03
02
0U
0O
1K
1=
1:
19
16
10
#500000
0"
0,
0-
#510000
1"
1,
1-
1L
1r
14!
11!
13!
1w
1z
15
0@
0<
0;
1H
0K
0=
1=
1/
#520000
0"
0,
0-
#530000
1"
1,
1-
0L
1q
0r
1{
1K
11
00
0/
#540000
0"
0,
0-
#550000
1"
1,
1-
1L
1r
1y
0z
0{
0H
0K
1/
1I
#560000
0"
0,
0-
#570000
1"
1,
1-
1M
0L
1p
0q
0r
1{
1K
10
0/
#580000
0"
0,
0-
#590000
1"
1,
1-
1L
1r
1z
0{
1H
0K
1/
#600000
0"
0,
0-
#610000
1"
1,
1-
0L
1q
0r
1{
13
1K
01
00
0/
14
#620000
0"
0,
0-
#630000
1"
1,
1-
1L
1r
1x
0y
0z
0{
05
12
17
1J
0H
0K
1/
0I
0=
06
04
0/
#640000
0"
0,
0-
#650000
1"
1,
1-
0M
0L
1o
0p
0q
0r
04!
0w
0x
07
03
02
1`
18
1K
1=
0`
08
09
0=
1/
19
#660000
0"
0,
0-
#670000
1"
1,
1-
1L
1r
1{
1H
0K
10
0/
#680000
0"
0,
0-
#690000
1"
1,
1-
0L
1q
0r
1z
0{
1K
1/
#700000
0"
0,
0-
#710000
1"
1,
1-
1L
1r
1{
0H
0K
11
00
0/
1I
#720000
0"
0,
0-
#730000
1"
1,
1-
1M
0L
1p
0q
0r
1y
0z
0{
1K
1/
#740000
0"
0,
0-
#750000
1"
1,
1-
1L
1r
1{
1H
0K
10
0/
#760000
0"
0,
0-
#770000
1"
1,
1-
0L
1q
0r
1z
0{
1K
1/
#780000
0"
0,
0-
#790000
1"
1,
1-
1L
1r
1{
13
0J
0H
1N
0K
01
00
0/
0I
14
#800000
0"
0,
0-
#810000
1"
1,
1-
1n
0M
0L
0o
0p
0q
0r
1x
0y
0z
0{
1K
1/
#820000
0"
0,
0-
#830000
1"
1,
1-
1L
1r
1{
1H
0K
10
0/
#840000
0"
0,
0-
#850000
1"
1,
1-
0L
1q
0r
1z
0{
1K
1/
#860000
0"
0,
0-
#870000
1"
1,
1-
1L
1r
1{
0H
0K
11
00
0/
1I
#880000
0"
0,
0-
#890000
1"
1,
1-
1M
0L
1p
0q
0r
1y
0z
0{
1K
1/
#900000
0"
0,
0-
#910000
1"
1,
1-
1L
1r
1{
1H
0K
10
0/
#920000
0"
0,
0-
#930000
1"
1,
1-
0L
1q
0r
1z
0{
1K
1/
#940000
0"
0,
0-
#950000
1"
1,
1-
1L
1r
1{
15
03
1J
0H
0K
01
00
0/
0I
04
16
#960000
0"
0,
0-
#970000
1"
1,
1-
0M
0L
1o
0p
0q
0r
1w
0x
0y
0z
0{
0J
1O
0N
1U
1/
#976562
1!
1.
#980000
0"
0,
0-
#990000
1"
1,
1-
0n
0o
1{
0U
0O
1K
10
0/
#1000000
0"
0,
0-
#1010000
1"
1,
1-
1L
1r
1z
0{
1H
0K
1/
#1020000
0"
0,
0-
#1030000
1"
1,
1-
0L
1q
0r
1{
1K
11
00
0/
#1040000
0"
0,
0-
#1050000
1"
1,
1-
1L
1r
1y
0z
0{
0H
0K
1/
1I
#1060000
0"
0,
0-
#1070000
1"
1,
1-
1M
0L
1p
0q
0r
1{
1K
10
0/
#1080000
0"
0,
0-
#1090000
1"
1,
1-
1L
1r
1z
0{
1H
0K
1/
#1100000
0"
0,
0-
#1110000
1"
1,
1-
0L
1q
0r
1{
13
1K
01
00
0/
14
#1120000
0"
0,
0-
#1130000
1"
1,
1-
1L
1r
1x
0y
0z
0{
05
12
17
1J
0H
0K
1/
0I
1`
18
1=
06
04
0/
09
#1140000
0"
0,
0-
#1150000
1"
1,
1-
1)!
0M
0L
1o
0p
0q
0r
14!
03!
0w
0x
07
03
02
08
1K
19
0=
0`
09
1=
1/
#1160000
0"
0,
0-
#1170000
1"
1,
1-
1L
1r
1{
1H
0K
10
0/
#1180000
0"
0,
0-
#1190000
1"
1,
1-
0L
1q
0r
1z
0{
1K
1/
#1200000
0"
0,
0-
#1210000
1"
1,
1-
1L
1r
1{
0H
0K
11
00
0/
1I
#1220000
0"
0,
0-
#1230000
1"
1,
1-
1M
0L
1p
0q
0r
1y
0z
0{
1K
1/
#1240000
0"
0,
0-
#1250000
1"
1,
1-
1L
1r
1{
1H
0K
10
0/
#1260000
0"
0,
0-
#1270000
1"
1,
1-
0L
1q
0r
1z
0{
1K
1/
#1280000
0"
0,
0-
#1290000
1"
1,
1-
1L
1r
1{
13
0J
0H
1N
0K
01
00
0/
0I
14
#1300000
0"
0,
0-
#1310000
1"
1,
1-
1n
0M
0L
0o
0p
0q
0r
1x
0y
0z
0{
1K
1/
#1320000
0"
0,
0-
#1330000
1"
1,
1-
1L
1r
1{
1H
0K
10
0/
#1340000
0"
0,
0-
#1350000
1"
1,
1-
0L
1q
0r
1z
0{
1K
1/
#1360000
0"
0,
0-
#1370000
1"
1,
1-
1L
1r
1{
0H
0K
11
00
0/
1I
#1380000
0"
0,
0-
#1390000
1"
1,
1-
1M
0L
1p
0q
0r
1y
0z
0{
1K
1/
#1400000
0"
0,
0-
#1410000
1"
1,
1-
1L
1r
1{
1H
0K
10
0/
#1420000
0"
0,
0-
#1430000
1"
1,
1-
0L
1q
0r
1z
0{
1K
1/
#1440000
0"
0,
0-
#1450000
1"
1,
1-
1L
1r
1{
15
03
1J
0H
0K
01
00
0/
0I
04
16
#1460000
0"
0,
0-
#1470000
1"
1,
1-
0M
0L
1o
0p
0q
0r
1w
0x
0y
0z
0{
0J
1O
0N
1U
1/
#1480000
0"
0,
0-
#1490000
1"
1,
1-
0n
0o
1{
0U
0O
1K
10
0/
#1500000
0"
0,
0-
#1510000
1"
1,
1-
1L
1r
1z
0{
1H
0K
1/
#1520000
0"
0,
0-
#1530000
1"
1,
1-
0L
1q
0r
1{
1K
11
00
0/
#1540000
0"
0,
0-
#1550000
1"
1,
1-
1L
1r
1y
0z
0{
0H
0K
1/
1I
#1560000
0"
0,
0-
#1570000
1"
1,
1-
1M
0L
1p
0q
0r
1{
1K
10
0/
#1580000
0"
0,
0-
#1590000
1"
1,
1-
1L
1r
1z
0{
1H
0K
1/
#1600000
0"
0,
0-
#1610000
1"
1,
1-
0L
1q
0r
1{
13
1K
01
00
0/
14
#1620000
0"
0,
0-
#1630000
1"
1,
1-
1L
1r
1x
0y
0z
0{
05
12
17
1J
0H
0K
1/
0I
1`
0=
06
04
0/
#1640000
0"
0,
0-
#1650000
1"
1,
1-
1*!
0M
0L
1o
0p
0q
0r
04!
0w
0x
07
03
02
1>
18
1K
1=
1c
0`
0>
08
19
1?
0:
0=
1/
09
0?
1:
#1660000
0"
0,
0-
#1670000
1"
1,
1-
1L
1r
1{
1H
0K
10
0/
#1680000
0"
0,
0-
#1690000
1"
1,
1-
0L
1q
0r
1z
0{
1K
1/
#1700000
0"
0,
0-
#1710000
1"
1,
1-
1L
1r
1{
0H
0K
11
00
0/
1I
#1720000
0"
0,
0-
#1730000
1"
1,
1-
1M
0L
1p
0q
0r
1y
0z
0{
1K
1/
#1740000
0"
0,
0-
#1750000
1"
1,
1-
1L
1r
1{
1H
0K
10
0/
#1760000
0"
0,
0-
#1770000
1"
1,
1-
0L
1q
0r
1z
0{
1K
1/
#1780000
0"
0,
0-
#1790000
1"
1,
1-
1L
1r
1{
13
0J
0H
1N
0K
01
00
0/
0I
14
#1800000
0"
0,
0-
#1810000
1"
1,
1-
1n
0M
0L
0o
0p
0q
0r
1x
0y
0z
0{
1K
1/
#1820000
0"
0,
0-
#1830000
1"
1,
1-
1L
1r
1{
1H
0K
10
0/
#1840000
0"
0,
0-
#1850000
1"
1,
1-
0L
1q
0r
1z
0{
1K
1/
#1860000
0"
0,
0-
#1870000
1"
1,
1-
1L
1r
1{
0H
0K
11
00
0/
1I
#1880000
0"
0,
0-
#1890000
1"
1,
1-
1M
0L
1p
0q
0r
1y
0z
0{
1K
1/
#1900000
0"
0,
0-
#1910000
1"
1,
1-
1L
1r
1{
1H
0K
10
0/
#1920000
0"
0,
0-
#1930000
1"
1,
1-
0L
1q
0r
1z
0{
1K
1/
#1940000
0"
0,
0-
#1950000
1"
1,
1-
1L
1r
1{
15
03
1J
0H
0K
01
00
0/
0I
04
16
#1960000
0"
0,
0-
#1970000
1"
1,
1-
0M
0L
1o
0p
0q
0r
1w
0x
0y
0z
0{
0J
1O
0N
1U
1/
#1980000
0"
0,
0-
#1990000
1"
1,
1-
0n
0o
1{
0U
0O
1K
10
0/
#2000000
0"
0,
0-
#2010000
1"
1,
1-
1L
1r
1z
0{
1H
0K
1/
#2020000
0"
0,
0-
#2030000
1"
1,
1-
0L
1q
0r
1{
1K
11
00
0/
#2040000
0"
0,
0-
#2050000
1"
1,
1-
1L
1r
1y
0z
0{
0H
0K
1/
1I
#2060000
0"
0,
0-
#2070000
1"
1,
1-
1M
0L
1p
0q
0r
1{
1K
10
0/
#2080000
0"
0,
0-
#2090000
1"
1,
1-
1L
1r
1z
0{
1H
0K
1/
#2100000
0"
0,
0-
#2110000
1"
1,
1-
0L
1q
0r
1{
13
1K
01
00
0/
14
#2120000
0"
0,
0-
#2130000
1"
1,
1-
1L
1r
1x
0y
0z
0{
05
12
17
1J
0H
0K
1/
0I
1`
1>
18
1=
06
04
0/
19
1?
0:
#2140000
0"
0,
0-
#2150000
1"
1,
1-
1+!
0M
0L
1o
0p
0q
0r
12!
14!
01!
13!
0w
0x
07
03
02
0>
08
1K
09
0=
0?
1e
0`
19
1?
1=
1/
#2160000
0"
0,
0-
#2170000
1"
1,
1-
1L
1r
1{
1H
0K
10
0/
#2180000
0"
0,
0-
#2190000
1"
1,
1-
0L
1q
0r
1z
0{
1K
1/
#2200000
0"
0,
0-
#2210000
1"
1,
1-
1L
1r
1{
0H
0K
11
00
0/
1I
#2220000
0"
0,
0-
#2230000
1"
1,
1-
1M
0L
1p
0q
0r
1y
0z
0{
1K
1/
#2240000
0"
0,
0-
#2250000
1"
1,
1-
1L
1r
1{
1H
0K
10
0/
#2260000
0"
0,
0-
#2270000
1"
1,
1-
0L
1q
0r
1z
0{
1K
1/
#2280000
0"
0,
0-
#2290000
1"
1,
1-
1L
1r
1{
13
0J
0H
1N
0K
01
00
0/
0I
14
#2300000
0"
0,
0-
#2310000
1"
1,
1-
1n
0M
0L
0o
0p
0q
0r
1x
0y
0z
0{
1K
1/
#2320000
0"
0,
0-
#2330000
1"
1,
1-
1L
1r
1{
1H
0K
10
0/
#2340000
0"
0,
0-
#2350000
1"
1,
1-
0L
1q
0r
1z
0{
1K
1/
#2360000
0"
0,
0-
#2370000
1"
1,
1-
1L
1r
1{
0H
0K
11
00
0/
1I
#2380000
0"
0,
0-
#2390000
1"
1,
1-
1M
0L
1p
0q
0r
1y
0z
0{
1K
1/
#2400000
0"
0,
0-
#2410000
1"
1,
1-
1L
1r
1{
1H
0K
10
0/
#2420000
0"
0,
0-
#2430000
1"
1,
1-
0L
1q
0r
1z
0{
1K
1/
#2440000
0"
0,
0-
#2450000
1"
1,
1-
1L
1r
1{
15
03
1J
0H
0K
01
00
0/
0I
04
16
#2460000
0"
0,
0-
#2470000
1"
1,
1-
0M
0L
1o
0p
0q
0r
1w
0x
0y
0z
0{
0J
1O
0N
1U
1/
#2480000
0"
0,
0-
#2490000
1"
1,
1-
0n
0o
1{
0U
0O
1K
10
0/
#2500000
0"
0,
0-
#2510000
1"
1,
1-
1L
1r
1z
0{
1H
0K
1/
#2520000
0"
0,
0-
#2530000
1"
1,
1-
0L
1q
0r
1{
1K
11
00
0/
#2540000
0"
0,
0-
#2550000
1"
1,
1-
1L
1r
1y
0z
0{
0H
0K
1/
1I
#2560000
0"
0,
0-
#2570000
1"
1,
1-
1M
0L
1p
0q
0r
1{
1K
10
0/
#2580000
0"
0,
0-
#2590000
1"
1,
1-
1L
1r
1z
0{
1H
0K
1/
#2600000
0"
0,
0-
#2610000
1"
1,
1-
0L
1q
0r
1{
13
1K
01
00
0/
14
#2620000
0"
0,
0-
#2630000
1"
1,
1-
1L
1r
1x
0y
0z
0{
05
12
17
1J
0H
0K
1/
0I
1`
0=
06
04
0/
#2640000
0"
0,
0-
#2650000
1"
1,
1-
1,!
0M
0L
1o
0p
0q
0r
04!
0w
0x
07
03
02
18
1K
1=
1f
0`
08
09
0=
1/
19
#2660000
0"
0,
0-
#2670000
1"
1,
1-
1L
1r
1{
1H
0K
10
0/
#2680000
0"
0,
0-
#2690000
1"
1,
1-
0L
1q
0r
1z
0{
1K
1/
#2700000
0"
0,
0-
#2710000
1"
1,
1-
1L
1r
1{
0H
0K
11
00
0/
1I
#2720000
0"
0,
0-
#2730000
1"
1,
1-
1M
0L
1p
0q
0r
1y
0z
0{
1K
1/
#2740000
0"
0,
0-
#2750000
1"
1,
1-
1L
1r
1{
1H
0K
10
0/
#2760000
0"
0,
0-
#2770000
1"
1,
1-
0L
1q
0r
1z
0{
1K
1/
#2780000
0"
0,
0-
#2790000
1"
1,
1-
1L
1r
1{
13
0J
0H
1N
0K
01
00
0/
0I
14
#2800000
0"
0,
0-
#2810000
1"
1,
1-
1n
0M
0L
0o
0p
0q
0r
1x
0y
0z
0{
1K
1/
#2820000
0"
0,
0-
#2830000
1"
1,
1-
1L
1r
1{
1H
0K
10
0/
#2840000
0"
0,
0-
#2850000
1"
1,
1-
0L
1q
0r
1z
0{
1K
1/
#2860000
0"
0,
0-
#2870000
1"
1,
1-
1L
1r
1{
0H
0K
11
00
0/
1I
#2880000
0"
0,
0-
#2890000
1"
1,
1-
1M
0L
1p
0q
0r
1y
0z
0{
1K
1/
#2900000
0"
0,
0-
#2910000
1"
1,
1-
1L
1r
1{
1H
0K
10
0/
#2920000
0"
0,
0-
#2930000
1"
1,
1-
0L
1q
0r
1z
0{
1K
1/
#2940000
0"
0,
0-
#2950000
1"
1,
1-
1L
1r
1{
15
03
1J
0H
0K
01
00
0/
0I
04
16
#2960000
0"
0,
0-
#2970000
1"
1,
1-
0M
0L
1o
0p
0q
0r
1w
0x
0y
0z
0{
0J
1O
0N
1U
1/
#2980000
0"
0,
0-
#2990000
1"
1,
1-
0n
0o
1{
0U
0O
1K
10
0/
#3000000
0"
0,
0-
#3010000
1"
1,
1-
1L
1r
1z
0{
1H
0K
1/
#3020000
0"
0,
0-
#3030000
1"
1,
1-
0L
1q
0r
1{
1K
11
00
0/
#3040000
0"
0,
0-
#3050000
1"
1,
1-
1L
1r
1y
0z
0{
0H
0K
1/
1I
#3060000
0"
0,
0-
#3070000
1"
1,
1-
1M
0L
1p
0q
0r
1{
1K
10
0/
#3080000
0"
0,
0-
#3090000
1"
1,
1-
1L
1r
1z
0{
1H
0K
1/
#3100000
0"
0,
0-
#3110000
1"
1,
1-
0L
1q
0r
1{
13
1K
01
00
0/
14
#3120000
0"
0,
0-
#3130000
1"
1,
1-
1L
1r
1x
0y
0z
0{
05
12
17
1J
0H
0K
1/
0I
1`
18
1=
06
04
0/
09
#3140000
0"
0,
0-
#3150000
1"
1,
1-
1-!
0M
0L
1o
0p
0q
0r
14!
03!
0w
0x
07
03
02
08
1K
19
0=
1g
0`
09
1=
1/
#3160000
0"
0,
0-
#3170000
1"
1,
1-
1L
1r
1{
1H
0K
10
0/
#3180000
0"
0,
0-
#3190000
1"
1,
1-
0L
1q
0r
1z
0{
1K
1/
#3200000
0"
0,
0-
#3210000
1"
1,
1-
1L
1r
1{
0H
0K
11
00
0/
1I
#3220000
0"
0,
0-
#3230000
1"
1,
1-
1M
0L
1p
0q
0r
1y
0z
0{
1K
1/
#3240000
0"
0,
0-
#3250000
1"
1,
1-
1L
1r
1{
1H
0K
10
0/
#3260000
0"
0,
0-
#3270000
1"
1,
1-
0L
1q
0r
1z
0{
1K
1/
#3280000
0"
0,
0-
#3290000
1"
1,
1-
1L
1r
1{
13
0J
0H
1N
0K
01
00
0/
0I
14
#3300000
0"
0,
0-
#3310000
1"
1,
1-
1n
0M
0L
0o
0p
0q
0r
1x
0y
0z
0{
1K
1/
#3320000
0"
0,
0-
#3330000
1"
1,
1-
1L
1r
1{
1H
0K
10
0/
#3340000
0"
0,
0-
#3350000
1"
1,
1-
0L
1q
0r
1z
0{
1K
1/
#3360000
0"
0,
0-
#3370000
1"
1,
1-
1L
1r
1{
0H
0K
11
00
0/
1I
#3380000
0"
0,
0-
#3390000
1"
1,
1-
1M
0L
1p
0q
0r
1y
0z
0{
1K
1/
#3400000
0"
0,
0-
#3410000
1"
1,
1-
1L
1r
1{
1H
0K
10
0/
#3420000
0"
0,
0-
#3430000
1"
1,
1-
0L
1q
0r
1z
0{
1K
1/
#3440000
0"
0,
0-
#3450000
1"
1,
1-
1L
1r
1{
15
03
1J
0H
0K
01
00
0/
0I
04
16
#3460000
0"
0,
0-
#3470000
1"
1,
1-
0M
0L
1o
0p
0q
0r
1w
0x
0y
0z
0{
0J
1O
0N
1U
1/
#3480000
0"
0,
0-
#3490000
1"
1,
1-
0n
0o
1{
0U
0O
1K
10
0/
#3500000
0"
0,
0-
#3510000
1"
1,
1-
1L
1r
1z
0{
1H
0K
1/
#3520000
0"
0,
0-
#3530000
1"
1,
1-
0L
1q
0r
1{
1K
11
00
0/
#3540000
0"
0,
0-
#3550000
1"
1,
1-
1L
1r
1y
0z
0{
0H
0K
1/
1I
#3560000
0"
0,
0-
#3570000
1"
1,
1-
1M
0L
1p
0q
0r
1{
1K
10
0/
#3580000
0"
0,
0-
#3590000
1"
1,
1-
1L
1r
1z
0{
1H
0K
1/
#3600000
0"
0,
0-
#3610000
1"
1,
1-
0L
1q
0r
1{
13
1K
01
00
0/
14
#3620000
0"
0,
0-
#3630000
1"
1,
1-
1L
1r
1x
0y
0z
0{
05
12
17
1J
0H
0K
1/
0I
1`
0=
06
04
0/
#3640000
0"
0,
0-
#3650000
1"
1,
1-
1.!
0M
0L
1o
0p
0q
0r
04!
0w
0x
07
03
02
1>
18
1K
1=
1h
0`
0>
08
19
0?
0=
1/
09
1?
#3660000
0"
0,
0-
#3670000
1"
1,
1-
1L
1r
1{
1H
0K
10
0/
#3680000
0"
0,
0-
#3690000
1"
1,
1-
0L
1q
0r
1z
0{
1K
1/
#3700000
0"
0,
0-
#3710000
1"
1,
1-
1L
1r
1{
0H
0K
11
00
0/
1I
#3720000
0"
0,
0-
#3730000
1"
1,
1-
1M
0L
1p
0q
0r
1y
0z
0{
1K
1/
#3740000
0"
0,
0-
#3750000
1"
1,
1-
1L
1r
1{
1H
0K
10
0/
#3760000
0"
0,
0-
#3770000
1"
1,
1-
0L
1q
0r
1z
0{
1K
1/
#3780000
0"
0,
0-
#3790000
1"
1,
1-
1L
1r
1{
13
0J
0H
1N
0K
01
00
0/
0I
14
#3800000
0"
0,
0-
#3810000
1"
1,
1-
1n
0M
0L
0o
0p
0q
0r
1x
0y
0z
0{
1K
1/
#3820000
0"
0,
0-
#3830000
1"
1,
1-
1L
1r
1{
1H
0K
10
0/
#3840000
0"
0,
0-
#3850000
1"
1,
1-
0L
1q
0r
1z
0{
1K
1/
#3860000
0"
0,
0-
#3870000
1"
1,
1-
1L
1r
1{
0H
0K
11
00
0/
1I
#3880000
0"
0,
0-
#3890000
1"
1,
1-
1M
0L
1p
0q
0r
1y
0z
0{
1K
1/
#3900000
0"
0,
0-
#3910000
1"
1,
1-
1L
1r
1{
1H
0K
10
0/
#3920000
0"
0,
0-
#3930000
1"
1,
1-
0L
1q
0r
1z
0{
1K
1/
#3940000
0"
0,
0-
#3950000
1"
1,
1-
1L
1r
1{
15
03
1J
0H
0K
01
00
0/
0I
04
16
#3960000
0"
0,
0-
#3970000
1"
1,
1-
0M
0L
1o
0p
0q
0r
1w
0x
0y
0z
0{
0J
1O
0N
1U
1/
#3980000
0"
0,
0-
#3990000
1"
1,
1-
0n
0o
1{
0U
0O
1K
10
0/
#4000000
0"
0,
0-
