source/test12UARTup_PingPong_LoadedRAM/simulation/qsim/test12.msim.vcd
$comment
	File created using the following command:
		vcd file test12.msim.vcd -direction
$end
$date
	Sun Aug 07 14:10:58 2016
$end
$version
	ModelSim Version 10.4d
$end
$timescale
	1ps
$end

$scope module test12_vlg_vec_tst $end
$var reg 1 ! PinRX $end
$var reg 1 " clk $end
$var wire 1 # PinTX $end
$var wire 1 $ debugLED $end

$scope module i1 $end
$var wire 1 % gnd $end
$var wire 1 & vcc $end
$var wire 1 ' unknown $end
$var tri1 1 ( devclrn $end
$var tri1 1 ) devpor $end
$var tri1 1 * devoe $end
$var wire 1 + ~QUARTUS_CREATED_GND~I_combout $end
$var wire 1 , clk~input_o $end
$var wire 1 - clk~inputCLKENA0_outclk $end
$var wire 1 . ActionDataTransmitToUART~q $end
$var wire 1 / PinRX~input_o $end
$var wire 1 0 comb_8|clok2048MbodCounterRX[0]~3_combout $end
$var wire 1 1 comb_8|clok2048MbodCounterRX[1]~4_combout $end
$var wire 1 2 comb_8|clok2048MbodCounterRX[2]~5_combout $end
$var wire 1 3 comb_8|Add0~0_combout $end
$var wire 1 4 comb_8|clok2048MbodCounterRX[3]~0_combout $end
$var wire 1 5 comb_8|dataCounter~0_combout $end
$var wire 1 6 comb_8|dataCounter~3_combout $end
$var wire 1 7 comb_8|dataCounter~4_combout $end
$var wire 1 8 comb_8|dataCounter~5_combout $end
$var wire 1 9 comb_8|dataCounter~7_combout $end
$var wire 1 : comb_8|dataCounter~1_combout $end
$var wire 1 ; comb_8|Equal0~0_combout $end
$var wire 1 < comb_8|dataCounter~2_combout $end
$var wire 1 = comb_8|always0~1_combout $end
$var wire 1 > comb_8|clok2048MbodCounterRX[4]~1_combout $end
$var wire 1 ? comb_8|clok2048MbodCounterRX[4]~2_combout $end
$var wire 1 @ comb_8|Equal2~0_combout $end
$var wire 1 A comb_8|dataCounter~6_combout $end
$var wire 1 B comb_8|flagOUT_DataResive~0_combout $end
$var wire 1 C comb_8|flagOUT_DataResive~1_combout $end
$var wire 1 D comb_8|flagOUT_DataResive~q $end
$var wire 1 E ActionDataTransmitToUART~0_combout $end
$var wire 1 F ActionDataTransmitToUART~DUPLICATE_q $end
$var wire 1 G comb_8|clok2048MbodCounterTX[4]~DUPLICATE_q $end
$var wire 1 H comb_8|clok2048MbodCounterTX[3]~DUPLICATE_q $end
$var wire 1 I comb_8|clok2048MbodCounterTX[0]~2_combout $end
$var wire 1 J comb_8|clok2048MbodCounterTX[0]~DUPLICATE_q $end
$var wire 1 K comb_8|clok2048MbodCounterTX[1]~1_combout $end
$var wire 1 L comb_8|clok2048MbodCounterTX[1]~DUPLICATE_q $end
$var wire 1 M comb_8|clok2048MbodCounterTX[2]~0_combout $end
$var wire 1 N comb_8|clok2048MbodCounterTX[4]~3_combout $end
$var wire 1 O comb_8|clok2048MbodCounterTX[3]~4_combout $end
$var wire 1 P comb_8|Equal6~0_combout $end
$var wire 1 Q comb_8|dataCounterTX[2]~5_combout $end
$var wire 1 R comb_8|dataCounterTX[2]~DUPLICATE_q $end
$var wire 1 S comb_8|shiftRegTX[0]~1_combout $end
$var wire 1 T comb_8|dataCounterTX~2_combout $end
$var wire 1 U comb_8|Equal6~1_combout $end
$var wire 1 V comb_8|Equal9~1_combout $end
$var wire 1 W comb_8|shiftRegTX~0_combout $end
$var wire 1 X comb_8|dataCounterTX~4_combout $end
$var wire 1 Y comb_8|dataCounterTX[3]~DUPLICATE_q $end
$var wire 1 Z comb_8|Equal9~0_combout $end
$var wire 1 [ comb_8|dataCounterTX~3_combout $end
$var wire 1 \ comb_8|dataCounterTX~6_combout $end
$var wire 1 ] comb_8|dataCounterTX[1]~DUPLICATE_q $end
$var wire 1 ^ comb_8|dataCounterTX~0_combout $end
$var wire 1 _ comb_8|dataCounterTX~1_combout $end
$var wire 1 ` comb_8|always0~0_combout $end
$var wire 1 a comb_8|dataIN[0]~0_combout $end
$var wire 1 b comb_8|dataIN[6]~DUPLICATE_q $end
$var wire 1 c comb_8|shiftRegTX~10_combout $end
$var wire 1 d comb_8|shiftRegTX~9_combout $end
$var wire 1 e comb_8|shiftRegTX[0]~3_combout $end
$var wire 1 f comb_8|shiftRegTX~8_combout $end
$var wire 1 g comb_8|dataIN[4]~DUPLICATE_q $end
$var wire 1 h comb_8|shiftRegTX~7_combout $end
$var wire 1 i comb_8|shiftRegTX~6_combout $end
$var wire 1 j comb_8|shiftRegTX~5_combout $end
$var wire 1 k comb_8|shiftRegTX~4_combout $end
$var wire 1 l comb_8|shiftRegTX~2_combout $end
$var wire 1 m comb_8|PinTX~1_combout $end
$var wire 1 n comb_8|PinTX~0_combout $end
$var wire 1 o comb_8|PinTX~2_combout $end
$var wire 1 p comb_8|PinTX~q $end
$var wire 1 q comb_8|clok2048MbodCounterTX [4] $end
$var wire 1 r comb_8|clok2048MbodCounterTX [3] $end
$var wire 1 s comb_8|clok2048MbodCounterTX [2] $end
$var wire 1 t comb_8|clok2048MbodCounterTX [1] $end
$var wire 1 u comb_8|clok2048MbodCounterTX [0] $end
$var wire 1 v comb_8|dataCounterTX [3] $end
$var wire 1 w comb_8|dataCounterTX [2] $end
$var wire 1 x comb_8|dataCounterTX [1] $end
$var wire 1 y comb_8|dataCounterTX [0] $end
$var wire 1 z comb_8|shiftRegTX [7] $end
$var wire 1 { comb_8|shiftRegTX [6] $end
$var wire 1 | comb_8|shiftRegTX [5] $end
$var wire 1 } comb_8|shiftRegTX [4] $end
$var wire 1 ~ comb_8|shiftRegTX [3] $end
$var wire 1 !! comb_8|shiftRegTX [2] $end
$var wire 1 "! comb_8|shiftRegTX [1] $end
$var wire 1 #! comb_8|shiftRegTX [0] $end
$var wire 1 $! comb_8|dataIN [7] $end
$var wire 1 %! comb_8|dataIN [6] $end
$var wire 1 &! comb_8|dataIN [5] $end
$var wire 1 '! comb_8|dataIN [4] $end
$var wire 1 (! comb_8|dataIN [3] $end
$var wire 1 )! comb_8|dataIN [2] $end
$var wire 1 *! comb_8|dataIN [1] $end
$var wire 1 +! comb_8|dataIN [0] $end
$var wire 1 ,! comb_8|clok2048MbodCounterRX [4] $end
$var wire 1 -! comb_8|clok2048MbodCounterRX [3] $end
$var wire 1 .! comb_8|clok2048MbodCounterRX [2] $end
$var wire 1 /! comb_8|clok2048MbodCounterRX [1] $end
$var wire 1 0! comb_8|clok2048MbodCounterRX [0] $end
$var wire 1 1! comb_8|dataCounter [3] $end
$var wire 1 2! comb_8|dataCounter [2] $end
$var wire 1 3! comb_8|dataCounter [1] $end
$var wire 1 4! comb_8|dataCounter [0] $end
$upscope $end
$upscope $end
$enddefinitions $end
#0
$dumpvars
1!
0"
1#
0$
0%
1&
x'
1(
1)
1*
0+
0,
0-
0.
1/
10
01
02
03
04
05
06
07
08
09
1:
1;
0<
1=
0>
0?
0@
0A
0B
0C
0D
0E
0F
0G
0H
1I
0J
0K
0L
0M
0N
0O
0P
0Q
0R
0S
0T
0U
1V
0W
0X
0Y
0Z
0[
0\
0]
1^
0_
0`
0a
0b
0c
0d
0e
0f
0g
0h
0i
0j
0k
0l
0m
1n
0o
0p
0u
0t
0s
0r
0q
0y
0x
0w
0v
0#!
0"!
0!!
0~
0}
0|
0{
0z
0+!
0*!
0)!
0(!
0'!
0&!
0%!
0$!
00!
0/!
0.!
0-!
0,!
04!
03!
02!
01!
$end
#10000
1"
1,
1-
1J
1u
10!
11
00
0I
1K
#20000
0"
0,
0-
#30000
1"
1,
1-
1L
1t
0J
0u
1/!
00!
10
1I
#40000
0"
0,
0-
#50000
1"
1,
1-
1J
1u
10!
12
01
00
0I
1M
0K
#60000
0"
0,
0-
#70000
1"
1,
1-
1s
0L
0t
0J
0u
1.!
0/!
00!
10
1I
#80000
0"
0,
0-
#90000
1"
1,
1-
1J
1u
10!
11
00
0I
1K
#100000
0"
0,
0-
#110000
1"
1,
1-
1L
1t
0J
0u
1/!
00!
10
1I
#120000
0"
0,
0-
#130000
1"
1,
1-
1J
1u
10!
13
02
01
00
1O
0I
0M
0K
14
#140000
0"
0,
0-
#150000
1"
1,
1-
1r
0s
0L
0t
0J
1H
0u
1-!
0.!
0/!
00!
10
1I
#160000
0"
0,
0-
#170000
1"
1,
1-
1J
1u
10!
11
00
0I
1K
#180000
0"
0,
0-
#190000
1"
1,
1-
1L
1t
0J
0u
1/!
00!
10
1I
#200000
0"
0,
0-
#210000
1"
1,
1-
1J
1u
10!
12
01
00
0I
1M
0K
#220000
0"
0,
0-
#230000
1"
1,
1-
1s
0L
0t
0J
0u
1.!
0/!
00!
10
1I
#240000
0"
0,
0-
#250000
1"
1,
1-
1J
1u
10!
11
00
0I
1K
#260000
0"
0,
0-
#270000
1"
1,
1-
1L
1t
0J
0u
1/!
00!
10
1I
#280000
0"
0,
0-
#290000
1"
1,
1-
1J
1u
10!
1>
03
02
01
00
0O
1N
0I
0M
0K
04
1?
#300000
0"
0,
0-
#310000
1"
1,
1-
0r
1q
0s
0L
0t
0J
0H
0u
1G
1,!
0-!
0.!
0/!
00!
10
1I
#320000
0"
0,
0-
#330000
1"
1,
1-
1J
1u
10!
11
00
0I
1K
#340000
0"
0,
0-
#350000
1"
1,
1-
1L
1t
0J
0u
1/!
00!
10
1I
#360000
0"
0,
0-
#370000
1"
1,
1-
1J
1u
10!
12
01
00
0I
1M
0K
#380000
0"
0,
0-
#390000
1"
1,
1-
1s
0L
0t
0J
0u
1.!
0/!
00!
10
1I
#400000
0"
0,
0-
#410000
1"
1,
1-
1J
1u
10!
11
00
0I
1K
#420000
0"
0,
0-
#430000
1"
1,
1-
1L
1t
0J
0u
1/!
00!
10
1I
#440000
0"
0,
0-
#450000
1"
1,
1-
1J
1u
10!
13
02
01
00
1O
0I
0M
0K
14
#460000
0"
0,
0-
#470000
1"
1,
1-
1r
0s
0L
0t
0J
1H
0u
1-!
0.!
0/!
00!
0>
15
1@
1P
1U
10
0O
0N
0?
04
00
#480000
0"
0,
0-
#488281
0!
0/
#490000
1"
1,
1-
0r
0q
0H
0G
0,!
0-!
0@
05
03
0U
0P
1I
1<
1?
19
17
11
#500000
0"
0,
0-
#510000
1"
1,
1-
1J
1u
1,!
14!
11!
13!
1/!
1>
0=
0;
0:
0<
0I
1K
1<
10
#520000
0"
0,
0-
#530000
1"
1,
1-
1L
1t
0J
0u
10!
12
01
00
1I
#540000
0"
0,
0-
#550000
1"
1,
1-
1J
1u
1.!
0/!
00!
10
0I
1M
0K
#560000
0"
0,
0-
#570000
1"
1,
1-
1s
0L
0t
0J
0u
10!
11
00
1I
#580000
0"
0,
0-
#590000
1"
1,
1-
1J
1u
1/!
00!
10
0I
1K
#600000
0"
0,
0-
#610000
1"
1,
1-
1L
1t
0J
0u
10!
13
02
01
00
1I
14
#620000
0"
0,
0-
#630000
1"
1,
1-
1J
1u
1-!
0.!
0/!
00!
0>
15
1@
10
1O
0I
0M
0K
0?
0<
04
00
#640000
0"
0,
0-
#650000
1"
1,
1-
1r
0s
0L
0t
0J
1H
0u
0,!
04!
0-!
0@
05
03
1a
16
1<
1I
0a
06
07
0<
10
17
#660000
0"
0,
0-
#670000
1"
1,
1-
1J
1u
10!
11
00
0I
1K
#680000
0"
0,
0-
#690000
1"
1,
1-
1L
1t
0J
0u
1/!
00!
10
1I
#700000
0"
0,
0-
#710000
1"
1,
1-
1J
1u
10!
12
01
00
0I
1M
0K
#720000
0"
0,
0-
#730000
1"
1,
1-
1s
0L
0t
0J
0u
1.!
0/!
00!
10
1I
#740000
0"
0,
0-
#750000
1"
1,
1-
1J
1u
10!
11
00
0I
1K
#760000
0"
0,
0-
#770000
1"
1,
1-
1L
1t
0J
0u
1/!
00!
10
1I
#780000
0"
0,
0-
#790000
1"
1,
1-
1J
1u
10!
13
02
01
00
0O
1N
0I
0M
0K
14
#800000
0"
0,
0-
#810000
1"
1,
1-
0r
1q
0s
0L
0t
0J
0H
0u
1G
1-!
0.!
0/!
00!
10
1I
#820000
0"
0,
0-
#830000
1"
1,
1-
1J
1u
10!
11
00
0I
1K
#840000
0"
0,
0-
#850000
1"
1,
1-
1L
1t
0J
0u
1/!
00!
10
1I
#860000
0"
0,
0-
#870000
1"
1,
1-
1J
1u
10!
12
01
00
0I
1M
0K
#880000
0"
0,
0-
#890000
1"
1,
1-
1s
0L
0t
0J
0u
1.!
0/!
00!
10
1I
#900000
0"
0,
0-
#910000
1"
1,
1-
1J
1u
10!
11
00
0I
1K
#920000
0"
0,
0-
#930000
1"
1,
1-
1L
1t
0J
0u
1/!
00!
10
1I
#940000
0"
0,
0-
#950000
1"
1,
1-
1J
1u
10!
1>
03
02
01
00
1O
0I
0M
0K
04
1?
#960000
0"
0,
0-
#970000
1"
1,
1-
1r
0s
0L
0t
0J
1H
0u
1,!
0-!
0.!
0/!
00!
1P
1U
10
0O
0N
#976562
1!
1/
#980000
0"
0,
0-
#990000
1"
1,
1-
0r
0q
0H
0G
10!
0U
0P
11
00
1I
#1000000
0"
0,
0-
#1010000
1"
1,
1-
1J
1u
1/!
00!
10
0I
1K
#1020000
0"
0,
0-
#1030000
1"
1,
1-
1L
1t
0J
0u
10!
12
01
00
1I
#1040000
0"
0,
0-
#1050000
1"
1,
1-
1J
1u
1.!
0/!
00!
10
0I
1M
0K
#1060000
0"
0,
0-
#1070000
1"
1,
1-
1s
0L
0t
0J
0u
10!
11
00
1I
#1080000
0"
0,
0-
#1090000
1"
1,
1-
1J
1u
1/!
00!
10
0I
1K
#1100000
0"
0,
0-
#1110000
1"
1,
1-
1L
1t
0J
0u
10!
13
02
01
00
1I
14
#1120000
0"
0,
0-
#1130000
1"
1,
1-
1J
1u
1-!
0.!
0/!
00!
0>
15
1@
10
1O
0I
0M
0K
1a
16
0?
1<
04
00
07
#1140000
0"
0,
0-
#1150000
1"
1,
1-
1$!
1r
0s
0L
0t
0J
1H
0u
0,!
14!
03!
0-!
0@
05
03
06
17
0<
1I
0a
07
1<
10
#1160000
0"
0,
0-
#1170000
1"
1,
1-
1J
1u
10!
11
00
0I
1K
#1180000
0"
0,
0-
#1190000
1"
1,
1-
1L
1t
0J
0u
1/!
00!
10
1I
#1200000
0"
0,
0-
#1210000
1"
1,
1-
1J
1u
10!
12
01
00
0I
1M
0K
#1220000
0"
0,
0-
#1230000
1"
1,
1-
1s
0L
0t
0J
0u
1.!
0/!
00!
10
1I
#1240000
0"
0,
0-
#1250000
1"
1,
1-
1J
1u
10!
11
00
0I
1K
#1260000
0"
0,
0-
#1270000
1"
1,
1-
1L
1t
0J
0u
1/!
00!
10
1I
#1280000
0"
0,
0-
#1290000
1"
1,
1-
1J
1u
10!
13
02
01
00
0O
1N
0I
0M
0K
14
#1300000
0"
0,
0-
#1310000
1"
1,
1-
0r
1q
0s
0L
0t
0J
0H
0u
1G
1-!
0.!
0/!
00!
10
1I
#1320000
0"
0,
0-
#1330000
1"
1,
1-
1J
1u
10!
11
00
0I
1K
#1340000
0"
0,
0-
#1350000
1"
1,
1-
1L
1t
0J
0u
1/!
00!
10
1I
#1360000
0"
0,
0-
#1370000
1"
1,
1-
1J
1u
10!
12
01
00
0I
1M
0K
#1380000
0"
0,
0-
#1390000
1"
1,
1-
1s
0L
0t
0J
0u
1.!
0/!
00!
10
1I
#1400000
0"
0,
0-
#1410000
1"
1,
1-
1J
1u
10!
11
00
0I
1K
#1420000
0"
0,
0-
#1430000
1"
1,
1-
1L
1t
0J
0u
1/!
00!
10
1I
#1440000
0"
0,
0-
#1450000
1"
1,
1-
1J
1u
10!
1>
03
02
01
00
1O
0I
0M
0K
04
1?
#1460000
0"
0,
0-
#1464843
0!
0/
#1470000
1"
1,
1-
1r
0s
0L
0t
0J
1H
0u
1,!
0-!
0.!
0/!
00!
1P
1U
10
0O
0N
#1480000
0"
0,
0-
#1490000
1"
1,
1-
0r
0q
0H
0G
10!
0U
0P
11
00
1I
#1500000
0"
0,
0-
#1510000
1"
1,
1-
1J
1u
1/!
00!
10
0I
1K
#1520000
0"
0,
0-
#1530000
1"
1,
1-
1L
1t
0J
0u
10!
12
01
00
1I
#1540000
0"
0,
0-
#1550000
1"
1,
1-
1J
1u
1.!
0/!
00!
10
0I
1M
0K
#1560000
0"
0,
0-
#1570000
1"
1,
1-
1s
0L
0t
0J
0u
10!
11
00
1I
#1580000
0"
0,
0-
#1590000
1"
1,
1-
1J
1u
1/!
00!
10
0I
1K
#1600000
0"
0,
0-
#1610000
1"
1,
1-
1L
1t
0J
0u
10!
13
02
01
00
1I
14
#1620000
0"
0,
0-
#1630000
1"
1,
1-
1J
1u
1-!
0.!
0/!
00!
0>
15
1@
10
1O
0I
0M
0K
1a
0?
0<
04
00
#1640000
0"
0,
0-
#1650000
1"
1,
1-
1b
1%!
0$!
1r
0s
0L
0t
0J
1H
0u
0,!
04!
0-!
0@
05
03
18
16
1<
1I
1d
0a
08
06
17
1A
09
0<
10
07
0A
19
#1660000
0"
0,
0-
#1670000
1"
1,
1-
1J
1u
10!
11
00
0I
1K
#1680000
0"
0,
0-
#1690000
1"
1,
1-
1L
1t
0J
0u
1/!
00!
10
1I
#1700000
0"
0,
0-
#1710000
1"
1,
1-
1J
1u
10!
12
01
00
0I
1M
0K
#1720000
0"
0,
0-
#1730000
1"
1,
1-
1s
0L
0t
0J
0u
1.!
0/!
00!
10
1I
#1740000
0"
0,
0-
#1750000
1"
1,
1-
1J
1u
10!
11
00
0I
1K
#1760000
0"
0,
0-
#1770000
1"
1,
1-
1L
1t
0J
0u
1/!
00!
10
1I
#1780000
0"
0,
0-
#1790000
1"
1,
1-
1J
1u
10!
13
02
01
00
0O
1N
0I
0M
0K
14
#1800000
0"
0,
0-
#1810000
1"
1,
1-
0r
1q
0s
0L
0t
0J
0H
0u
1G
1-!
0.!
0/!
00!
10
1I
#1820000
0"
0,
0-
#1830000
1"
1,
1-
1J
1u
10!
11
00
0I
1K
#1840000
0"
0,
0-
#1850000
1"
1,
1-
1L
1t
0J
0u
1/!
00!
10
1I
#1860000
0"
0,
0-
#1870000
1"
1,
1-
1J
1u
10!
12
01
00
0I
1M
0K
#1880000
0"
0,
0-
#1890000
1"
1,
1-
1s
0L
0t
0J
0u
1.!
0/!
00!
10
1I
#1900000
0"
0,
0-
#1910000
1"
1,
1-
1J
1u
10!
11
00
0I
1K
#1920000
0"
0,
0-
#1930000
1"
1,
1-
1L
1t
0J
0u
1/!
00!
10
1I
#1940000
0"
0,
0-
#1950000
1"
1,
1-
1J
1u
10!
1>
03
02
01
00
1O
0I
0M
0K
04
1?
#1960000
0"
0,
0-
#1970000
1"
1,
1-
1r
0s
0L
0t
0J
1H
0u
1,!
0-!
0.!
0/!
00!
1P
1U
10
0O
0N
#1980000
0"
0,
0-
#1990000
1"
1,
1-
0r
0q
0H
0G
10!
0U
0P
11
00
1I
#2000000
0"
0,
0-
#2010000
1"
1,
1-
1J
1u
1/!
00!
10
0I
1K
#2020000
0"
0,
0-
#2030000
1"
1,
1-
1L
1t
0J
0u
10!
12
01
00
1I
#2040000
0"
0,
0-
#2050000
1"
1,
1-
1J
1u
1.!
0/!
00!
10
0I
1M
0K
#2060000
0"
0,
0-
#2070000
1"
1,
1-
1s
0L
0t
0J
0u
10!
11
00
1I
#2080000
0"
0,
0-
#2090000
1"
1,
1-
1J
1u
1/!
00!
10
0I
1K
#2100000
0"
0,
0-
#2110000
1"
1,
1-
1L
1t
0J
0u
10!
13
02
01
00
1I
14
#2120000
0"
0,
0-
#2130000
1"
1,
1-
1J
1u
1-!
0.!
0/!
00!
0>
15
1@
10
1O
0I
0M
0K
1a
18
16
0?
1<
04
00
17
1A
09
#2140000
0"
0,
0-
#2150000
1"
1,
1-
0b
1&!
0%!
1r
0s
0L
0t
0J
1H
0u
12!
0,!
14!
01!
13!
0-!
0@
05
03
08
06
07
0<
0A
1I
1f
0d
0a
17
1A
1<
10
#2160000
0"
0,
0-
#2170000
1"
1,
1-
1J
1u
10!
11
00
0I
1K
#2180000
0"
0,
0-
#2190000
1"
1,
1-
1L
1t
0J
0u
1/!
00!
10
1I
#2200000
0"
0,
0-
#2210000
1"
1,
1-
1J
1u
10!
12
01
00
0I
1M
0K
#2220000
0"
0,
0-
#2230000
1"
1,
1-
1s
0L
0t
0J
0u
1.!
0/!
00!
10
1I
#2240000
0"
0,
0-
#2250000
1"
1,
1-
1J
1u
10!
11
00
0I
1K
#2260000
0"
0,
0-
#2270000
1"
1,
1-
1L
1t
0J
0u
1/!
00!
10
1I
#2280000
0"
0,
0-
#2290000
1"
1,
1-
1J
1u
10!
13
02
01
00
0O
1N
0I
0M
0K
14
#2300000
0"
0,
0-
#2310000
1"
1,
1-
0r
1q
0s
0L
0t
0J
0H
0u
1G
1-!
0.!
0/!
00!
10
1I
#2320000
0"
0,
0-
#2330000
1"
1,
1-
1J
1u
10!
11
00
0I
1K
#2340000
0"
0,
0-
#2350000
1"
1,
1-
1L
1t
0J
0u
1/!
00!
10
1I
#2360000
0"
0,
0-
#2370000
1"
1,
1-
1J
1u
10!
12
01
00
0I
1M
0K
#2380000
0"
0,
0-
#2390000
1"
1,
1-
1s
0L
0t
0J
0u
1.!
0/!
00!
10
1I
#2400000
0"
0,
0-
#2410000
1"
1,
1-
1J
1u
10!
11
00
0I
1K
#2420000
0"
0,
0-
#2430000
1"
1,
1-
1L
1t
0J
0u
1/!
00!
10
1I
#2440000
0"
0,
0-
#2450000
1"
1,
1-
1J
1u
10!
1>
03
02
01
00
1O
0I
0M
0K
04
1?
#2460000
0"
0,
0-
#2470000
1"
1,
1-
1r
0s
0L
0t
0J
1H
0u
1,!
0-!
0.!
0/!
00!
1P
1U
10
0O
0N
#2480000
0"
0,
0-
#2490000
1"
1,
1-
0r
0q
0H
0G
10!
0U
0P
11
00
1I
#2500000
0"
0,
0-
#2510000
1"
1,
1-
1J
1u
1/!
00!
10
0I
1K
#2520000
0"
0,
0-
#2530000
1"
1,
1-
1L
1t
0J
0u
10!
12
01
00
1I
#2540000
0"
0,
0-
#2550000
1"
1,
1-
1J
1u
1.!
0/!
00!
10
0I
1M
0K
#2560000
0"
0,
0-
#2570000
1"
1,
1-
1s
0L
0t
0J
0u
10!
11
00
1I
#2580000
0"
0,
0-
#2590000
1"
1,
1-
1J
1u
1/!
00!
10
0I
1K
#2600000
0"
0,
0-
#2610000
1"
1,
1-
1L
1t
0J
0u
10!
13
02
01
00
1I
14
#2620000
0"
0,
0-
#2630000
1"
1,
1-
1J
1u
1-!
0.!
0/!
00!
0>
15
1@
10
1O
0I
0M
0K
1a
0?
0<
04
00
#2640000
0"
0,
0-
#2650000
1"
1,
1-
1g
1'!
0&!
1r
0s
0L
0t
0J
1H
0u
0,!
04!
0-!
0@
05
03
16
1<
1I
0f
1h
0a
06
07
0<
10
17
#2660000
0"
0,
0-
#2670000
1"
1,
1-
1J
1u
10!
11
00
0I
1K
#2680000
0"
0,
0-
#2690000
1"
1,
1-
1L
1t
0J
0u
1/!
00!
10
1I
#2700000
0"
0,
0-
#2710000
1"
1,
1-
1J
1u
10!
12
01
00
0I
1M
0K
#2720000
0"
0,
0-
#2730000
1"
1,
1-
1s
0L
0t
0J
0u
1.!
0/!
00!
10
1I
#2740000
0"
0,
0-
#2750000
1"
1,
1-
1J
1u
10!
11
00
0I
1K
#2760000
0"
0,
0-
#2770000
1"
1,
1-
1L
1t
0J
0u
1/!
00!
10
1I
#2780000
0"
0,
0-
#2790000
1"
1,
1-
1J
1u
10!
13
02
01
00
0O
1N
0I
0M
0K
14
#2800000
0"
0,
0-
#2810000
1"
1,
1-
0r
1q
0s
0L
0t
0J
0H
0u
1G
1-!
0.!
0/!
00!
10
1I
#2820000
0"
0,
0-
#2830000
1"
1,
1-
1J
1u
10!
11
00
0I
1K
#2840000
0"
0,
0-
#2850000
1"
1,
1-
1L
1t
0J
0u
1/!
00!
10
1I
#2860000
0"
0,
0-
#2870000
1"
1,
1-
1J
1u
10!
12
01
00
0I
1M
0K
#2880000
0"
0,
0-
#2890000
1"
1,
1-
1s
0L
0t
0J
0u
1.!
0/!
00!
10
1I
#2900000
0"
0,
0-
#2910000
1"
1,
1-
1J
1u
10!
11
00
0I
1K
#2920000
0"
0,
0-
#2930000
1"
1,
1-
1L
1t
0J
0u
1/!
00!
10
1I
#2940000
0"
0,
0-
#2950000
1"
1,
1-
1J
1u
10!
1>
03
02
01
00
1O
0I
0M
0K
04
1?
#2960000
0"
0,
0-
#2970000
1"
1,
1-
1r
0s
0L
0t
0J
1H
0u
1,!
0-!
0.!
0/!
00!
1P
1U
10
0O
0N
#2980000
0"
0,
0-
#2990000
1"
1,
1-
0r
0q
0H
0G
10!
0U
0P
11
00
1I
#3000000
0"
0,
0-
#3010000
1"
1,
1-
1J
1u
1/!
00!
10
0I
1K
#3020000
0"
0,
0-
#3030000
1"
1,
1-
1L
1t
0J
0u
10!
12
01
00
1I
#3040000
0"
0,
0-
#3050000
1"
1,
1-
1J
1u
1.!
0/!
00!
10
0I
1M
0K
#3060000
0"
0,
0-
#3070000
1"
1,
1-
1s
0L
0t
0J
0u
10!
11
00
1I
#3080000
0"
0,
0-
#3090000
1"
1,
1-
1J
1u
1/!
00!
10
0I
1K
#3100000
0"
0,
0-
#3110000
1"
1,
1-
1L
1t
0J
0u
10!
13
02
01
00
1I
14
#3120000
0"
0,
0-
#3130000
1"
1,
1-
1J
1u
1-!
0.!
0/!
00!
0>
15
1@
10
1O
0I
0M
0K
1a
16
0?
1<
04
00
07
#3140000
0"
0,
0-
#3150000
1"
1,
1-
0g
1(!
0'!
1r
0s
0L
0t
0J
1H
0u
0,!
14!
03!
0-!
0@
05
03
06
17
0<
1I
1i
0h
0a
07
1<
10
#3160000
0"
0,
0-
#3170000
1"
1,
1-
1J
1u
10!
11
00
0I
1K
#3180000
0"
0,
0-
#3190000
1"
1,
1-
1L
1t
0J
0u
1/!
00!
10
1I
#3200000
0"
0,
0-
#3210000
1"
1,
1-
1J
1u
10!
12
01
00
0I
1M
0K
#3220000
0"
0,
0-
#3230000
1"
1,
1-
1s
0L
0t
0J
0u
1.!
0/!
00!
10
1I
#3240000
0"
0,
0-
#3250000
1"
1,
1-
1J
1u
10!
11
00
0I
1K
#3260000
0"
0,
0-
#3270000
1"
1,
1-
1L
1t
0J
0u
1/!
00!
10
1I
#3280000
0"
0,
0-
#3290000
1"
1,
1-
1J
1u
10!
13
02
01
00
0O
1N
0I
0M
0K
14
#3300000
0"
0,
0-
#3310000
1"
1,
1-
0r
1q
0s
0L
0t
0J
0H
0u
1G
1-!
0.!
0/!
00!
10
1I
#3320000
0"
0,
0-
#3330000
1"
1,
1-
1J
1u
10!
11
00
0I
1K
#3340000
0"
0,
0-
#3350000
1"
1,
1-
1L
1t
0J
0u
1/!
00!
10
1I
#3360000
0"
0,
0-
#3370000
1"
1,
1-
1J
1u
10!
12
01
00
0I
1M
0K
#3380000
0"
0,
0-
#3390000
1"
1,
1-
1s
0L
0t
0J
0u
1.!
0/!
00!
10
1I
#3400000
0"
0,
0-
#3410000
1"
1,
1-
1J
1u
10!
11
00
0I
1K
#3420000
0"
0,
0-
#3430000
1"
1,
1-
1L
1t
0J
0u
1/!
00!
10
1I
#3440000
0"
0,
0-
#3450000
1"
1,
1-
1J
1u
10!
1>
03
02
01
00
1O
0I
0M
0K
04
1?
#3460000
0"
0,
0-
#3470000
1"
1,
1-
1r
0s
0L
0t
0J
1H
0u
1,!
0-!
0.!
0/!
00!
1P
1U
10
0O
0N
#3480000
0"
0,
0-
#3490000
1"
1,
1-
0r
0q
0H
0G
10!
0U
0P
11
00
1I
#3500000
0"
0,
0-
#3510000
1"
1,
1-
1J
1u
1/!
00!
10
0I
1K
#3520000
0"
0,
0-
#3530000
1"
1,
1-
1L
1t
0J
0u
10!
12
01
00
1I
#3540000
0"
0,
0-
#3550000
1"
1,
1-
1J
1u
1.!
0/!
00!
10
0I
1M
0K
#3560000
0"
0,
0-
#3570000
1"
1,
1-
1s
0L
0t
0J
0u
10!
11
00
1I
#3580000
0"
0,
0-
#3590000
1"
1,
1-
1J
1u
1/!
00!
10
0I
1K
#3600000
0"
0,
0-
#3610000
1"
1,
1-
1L
1t
0J
0u
10!
13
02
01
00
1I
14
#3620000
0"
0,
0-
#3630000
1"
1,
1-
1J
1u
1-!
0.!
0/!
00!
0>
15
1@
10
1O
0I
0M
0K
1a
0?
0<
04
00
#3640000
0"
0,
0-
#3650000
1"
1,
1-
1)!
0(!
1r
0s
0L
0t
0J
1H
0u
0,!
04!
0-!
0@
05
03
18
16
1<
1I
0i
1j
0a
08
06
17
0A
0<
10
07
1A
#3660000
0"
0,
0-
#3670000
1"
1,
1-
1J
1u
10!
11
00
0I
1K
#3680000
0"
0,
0-
#3690000
1"
1,
1-
1L
1t
0J
0u
1/!
00!
10
1I
#3700000
0"
0,
0-
#3710000
1"
1,
1-
1J
1u
10!
12
01
00
0I
1M
0K
#3720000
0"
0,
0-
#3730000
1"
1,
1-
1s
0L
0t
0J
0u
1.!
0/!
00!
10
1I
#3740000
0"
0,
0-
#3750000
1"
1,
1-
1J
1u
10!
11
00
0I
1K
#3760000
0"
0,
0-
#3770000
1"
1,
1-
1L
1t
0J
0u
1/!
00!
10
1I
#3780000
0"
0,
0-
#3790000
1"
1,
1-
1J
1u
10!
13
02
01
00
0O
1N
0I
0M
0K
14
#3800000
0"
0,
0-
#3810000
1"
1,
1-
0r
1q
0s
0L
0t
0J
0H
0u
1G
1-!
0.!
0/!
00!
10
1I
#3820000
0"
0,
0-
#3830000
1"
1,
1-
1J
1u
10!
11
00
0I
1K
#3840000
0"
0,
0-
#3850000
1"
1,
1-
1L
1t
0J
0u
1/!
00!
10
1I
#3860000
0"
0,
0-
#3870000
1"
1,
1-
1J
1u
10!
12
01
00
0I
1M
0K
