source/test14UARTrev3_PingPong/simulation/qsim/test14.msim.vcd
$comment
	File created using the following command:
		vcd file test14.msim.vcd -direction
$end
$date
	Sun Sep 04 19:15:28 2016
$end
$version
	ModelSim Version 10.4d
$end
$timescale
	1ps
$end

$scope module test14_vlg_vec_tst $end
$var reg 1 ! PinRX $end
$var reg 1 " clk $end
$var wire 1 # PinTX $end

$scope module i1 $end
$var wire 1 $ gnd $end
$var wire 1 % vcc $end
$var wire 1 & unknown $end
$var tri1 1 ' devclrn $end
$var tri1 1 ( devpor $end
$var tri1 1 ) devoe $end
$var wire 1 * ~QUARTUS_CREATED_GND~I_combout $end
$var wire 1 + clk~input_o $end
$var wire 1 , clk~inputCLKENA0_outclk $end
$var wire 1 - comb_32|Add1~9_sumout $end
$var wire 1 . comb_32|Add1~22 $end
$var wire 1 / comb_32|Add1~17_sumout $end
$var wire 1 0 comb_32|clok2048MbodCounterRX~13_combout $end
$var wire 1 1 comb_32|clok2048MbodCounterRX~2_combout $end
$var wire 1 2 comb_32|clok2048MbodCounterRX~3_combout $end
$var wire 1 3 comb_32|clok2048MbodCounterRX~4_combout $end
$var wire 1 4 comb_32|clok2048MbodCounterRX~6_combout $end
$var wire 1 5 comb_32|clok2048MbodCounterRX~7_combout $end
$var wire 1 6 comb_32|always0~12_combout $end
$var wire 1 7 PinRX~input_o $end
$var wire 1 8 comb_32|always0~11_combout $end
$var wire 1 9 comb_32|always0~13_combout $end
$var wire 1 : comb_32|clok2048MbodCounterRX~10_combout $end
$var wire 1 ; comb_32|clok2048MbodCounterRX~0_combout $end
$var wire 1 < comb_32|clok2048MbodCounterRX~1_combout $end
$var wire 1 = comb_32|always0~10_combout $end
$var wire 1 > comb_32|clok2048MbodCounterRX~11_combout $end
$var wire 1 ? comb_32|clok2048MbodCounterRX~12_combout $end
$var wire 1 @ comb_32|Equal13~0_combout $end
$var wire 1 A comb_32|clok2048MbodCounterRX~5_combout $end
$var wire 1 B comb_32|always0~9_combout $end
$var wire 1 C comb_32|clok2048MbodCounterRX~8_combout $end
$var wire 1 D comb_32|clok2048MbodCounterRX~9_combout $end
$var wire 1 E comb_32|Equal12~0_combout $end
$var wire 1 F comb_32|flagOUT_DataResive~0_combout $end
$var wire 1 G comb_32|flagOUT_DataResive~q $end
$var wire 1 H ActionDataTransmitToUART~0_combout $end
$var wire 1 I ActionDataTransmitToUART~DUPLICATE_q $end
$var wire 1 J comb_32|Add1~18 $end
$var wire 1 K comb_32|Add1~25_sumout $end
$var wire 1 L comb_32|clok2048MbodCounterTX[7]~DUPLICATE_q $end
$var wire 1 M comb_32|clok2048MbodCounterTX[2]~DUPLICATE_q $end
$var wire 1 N comb_32|clok2048MbodCounterTX[4]~DUPLICATE_q $end
$var wire 1 O comb_32|clok2048MbodCounterTX[0]~DUPLICATE_q $end
$var wire 1 P comb_32|LessThan2~0_combout $end
$var wire 1 Q comb_32|clok2048MbodCounterTX~0_combout $end
$var wire 1 R comb_32|Equal23~0_combout $end
$var wire 1 S comb_32|Equal23~1_combout $end
$var wire 1 T comb_32|Add1~10 $end
$var wire 1 U comb_32|Add1~1_sumout $end
$var wire 1 V comb_32|Add1~2 $end
$var wire 1 W comb_32|Add1~29_sumout $end
$var wire 1 X comb_32|Add1~30 $end
$var wire 1 Y comb_32|Add1~13_sumout $end
$var wire 1 Z comb_32|Add1~14 $end
$var wire 1 [ comb_32|Add1~5_sumout $end
$var wire 1 \ comb_32|Add1~6 $end
$var wire 1 ] comb_32|Add1~21_sumout $end
$var wire 1 ^ comb_32|clok2048MbodCounterTX[1]~DUPLICATE_q $end
$var wire 1 _ comb_32|PinTX~0_combout $end
$var wire 1 ` comb_32|PinTX~1_combout $end
$var wire 1 a comb_32|always0~14_combout $end
$var wire 1 b comb_32|always0~2_combout $end
$var wire 1 c comb_32|always0~0_combout $end
$var wire 1 d comb_32|always0~1_combout $end
$var wire 1 e comb_32|always0~4_combout $end
$var wire 1 f comb_32|always0~6_combout $end
$var wire 1 g comb_32|always0~7_combout $end
$var wire 1 h comb_32|always0~5_combout $end
$var wire 1 i comb_32|always0~8_combout $end
$var wire 1 j DataBusToUART[1]~feeder_combout $end
$var wire 1 k DataBusToUART[5]~feeder_combout $end
$var wire 1 l ActionDataTransmitToUART~q $end
$var wire 1 m comb_32|always0~3_combout $end
$var wire 1 n comb_32|shiftRegTX~8_combout $end
$var wire 1 o comb_32|shiftRegTX~7_combout $end
$var wire 1 p comb_32|shiftRegTX[0]~1_combout $end
$var wire 1 q comb_32|shiftRegTX~6_combout $end
$var wire 1 r comb_32|shiftRegTX~5_combout $end
$var wire 1 s comb_32|shiftRegTX~4_combout $end
$var wire 1 t comb_32|shiftRegTX~3_combout $end
$var wire 1 u comb_32|shiftRegTX~2_combout $end
$var wire 1 v comb_32|shiftRegTX~0_combout $end
$var wire 1 w comb_32|PinTX~2_combout $end
$var wire 1 x comb_32|PinTX~q $end
$var wire 1 y comb_32|clok2048MbodCounterTX [7] $end
$var wire 1 z comb_32|clok2048MbodCounterTX [6] $end
$var wire 1 { comb_32|clok2048MbodCounterTX [5] $end
$var wire 1 | comb_32|clok2048MbodCounterTX [4] $end
$var wire 1 } comb_32|clok2048MbodCounterTX [3] $end
$var wire 1 ~ comb_32|clok2048MbodCounterTX [2] $end
$var wire 1 !! comb_32|clok2048MbodCounterTX [1] $end
$var wire 1 "! comb_32|clok2048MbodCounterTX [0] $end
$var wire 1 #! comb_32|shiftRegTX [7] $end
$var wire 1 $! comb_32|shiftRegTX [6] $end
$var wire 1 %! comb_32|shiftRegTX [5] $end
$var wire 1 &! comb_32|shiftRegTX [4] $end
$var wire 1 '! comb_32|shiftRegTX [3] $end
$var wire 1 (! comb_32|shiftRegTX [2] $end
$var wire 1 )! comb_32|shiftRegTX [1] $end
$var wire 1 *! comb_32|shiftRegTX [0] $end
$var wire 1 +! DataBusToUART [7] $end
$var wire 1 ,! DataBusToUART [6] $end
$var wire 1 -! DataBusToUART [5] $end
$var wire 1 .! DataBusToUART [4] $end
$var wire 1 /! DataBusToUART [3] $end
$var wire 1 0! DataBusToUART [2] $end
$var wire 1 1! DataBusToUART [1] $end
$var wire 1 2! DataBusToUART [0] $end
$var wire 1 3! comb_32|dataIN [7] $end
$var wire 1 4! comb_32|dataIN [6] $end
$var wire 1 5! comb_32|dataIN [5] $end
$var wire 1 6! comb_32|dataIN [4] $end
$var wire 1 7! comb_32|dataIN [3] $end
$var wire 1 8! comb_32|dataIN [2] $end
$var wire 1 9! comb_32|dataIN [1] $end
$var wire 1 :! comb_32|dataIN [0] $end
$var wire 1 ;! comb_32|clok2048MbodCounterRX [7] $end
$var wire 1 <! comb_32|clok2048MbodCounterRX [6] $end
$var wire 1 =! comb_32|clok2048MbodCounterRX [5] $end
$var wire 1 >! comb_32|clok2048MbodCounterRX [4] $end
$var wire 1 ?! comb_32|clok2048MbodCounterRX [3] $end
$var wire 1 @! comb_32|clok2048MbodCounterRX [2] $end
$var wire 1 A! comb_32|clok2048MbodCounterRX [1] $end
$var wire 1 B! comb_32|clok2048MbodCounterRX [0] $end
$upscope $end
$upscope $end
$enddefinitions $end
#0
$dumpvars
1!
0"
1#
0$
1%
x&
1'
1(
1)
0*
0+
0,
1-
0.
0/
00
01
02
03
04
05
06
17
08
09
0:
0;
0<
0=
0>
0?
0@
0A
1B
0C
0D
0E
0F
0G
0H
0I
0J
0K
0L
0M
0N
0O
1P
0Q
0R
0S
0T
0U
0V
0W
0X
0Y
0Z
0[
0\
0]
0^
1_
0`
0a
0b
0c
0d
0e
0f
0g
0h
0i
0j
0k
0l
1m
0n
0o
0p
0q
0r
0s
0t
0u
0v
0w
0x
0"!
0!!
0~
0}
0|
0{
0z
0y
0*!
0)!
0(!
0'!
0&!
0%!
0$!
0#!
02!
01!
00!
0/!
0.!
0-!
0,!
0+!
0:!
09!
08!
07!
06!
05!
04!
03!
0B!
0A!
0@!
0?!
0>!
0=!
0<!
0;!
$end
#10000
1"
1+
1,
#20000
0"
0+
0,
#30000
1"
1+
1,
#40000
0"
0+
0,
#50000
1"
1+
1,
#60000
0"
0+
0,
#70000
1"
1+
1,
#80000
0"
0+
0,
#90000
1"
1+
1,
#100000
0"
0+
0,
#110000
1"
1+
1,
#120000
0"
0+
0,
#130000
1"
1+
1,
#140000
0"
0+
0,
#150000
1"
1+
1,
#160000
0"
0+
0,
#170000
1"
1+
1,
#180000
0"
0+
0,
#190000
1"
1+
1,
#200000
0"
0+
0,
#210000
1"
1+
1,
#220000
0"
0+
0,
#230000
1"
1+
1,
#240000
0"
0+
0,
#250000
1"
1+
1,
#260000
0"
0+
0,
#270000
1"
1+
1,
#280000
0"
0+
0,
#290000
1"
1+
1,
#300000
0"
0+
0,
#310000
1"
1+
1,
#320000
0"
0+
0,
#330000
1"
1+
1,
#340000
0"
0+
0,
#350000
1"
1+
1,
#360000
0"
0+
0,
#370000
1"
1+
1,
#380000
0"
0+
0,
#390000
1"
1+
1,
#400000
0"
0+
0,
#410000
1"
1+
1,
#420000
0"
0+
0,
#430000
1"
1+
1,
#440000
0"
0+
0,
#450000
1"
1+
1,
#460000
0"
0+
0,
#470000
1"
1+
1,
#480000
0"
0+
0,
#488281
0!
07
0B
10
#490000
1"
1+
1,
1B!
18
1:
00
#500000
0"
0+
0,
#510000
1"
1+
1,
1A!
0B!
08
10
#520000
0"
0+
0,
#530000
1"
1+
1,
1B!
1>
0:
00
1?
#540000
0"
0+
0,
#550000
1"
1+
1,
1@!
0A!
0B!
10
#560000
0"
0+
0,
#570000
1"
1+
1,
1B!
1:
00
#580000
0"
0+
0,
#590000
1"
1+
1,
1A!
0B!
1f
10
#600000
0"
0+
0,
#610000
1"
1+
1,
1B!
1g
0f
0>
1;
0:
00
1<
0?
#620000
0"
0+
0,
#630000
1"
1+
1,
0@!
1?!
0A!
0B!
0g
10
#640000
0"
0+
0,
#650000
1"
1+
1,
1B!
18
1:
00
#660000
0"
0+
0,
#670000
1"
1+
1,
1A!
0B!
08
10
#680000
0"
0+
0,
#690000
1"
1+
1,
1B!
1>
0:
00
1?
#700000
0"
0+
0,
#710000
1"
1+
1,
1@!
0A!
0B!
1=
10
#720000
0"
0+
0,
#730000
1"
1+
1,
1B!
0=
1:
00
#740000
0"
0+
0,
#750000
1"
1+
1,
1A!
0B!
1f
1=
10
#760000
0"
0+
0,
#770000
1"
1+
1,
1B!
1g
0f
0>
0=
0;
11
0:
00
12
0<
0?
#780000
0"
0+
0,
#790000
1"
1+
1,
0@!
0?!
0A!
1>!
0B!
0g
10
#800000
0"
0+
0,
#810000
1"
1+
1,
1B!
18
1:
00
#820000
0"
0+
0,
#830000
1"
1+
1,
1A!
0B!
08
10
#840000
0"
0+
0,
#850000
1"
1+
1,
1B!
1>
0:
00
1?
#860000
0"
0+
0,
#870000
1"
1+
1,
1@!
0A!
0B!
10
#880000
0"
0+
0,
#890000
1"
1+
1,
1B!
1:
00
#900000
0"
0+
0,
#910000
1"
1+
1,
1A!
0B!
1f
10
#920000
0"
0+
0,
#930000
1"
1+
1,
1B!
0f
0>
1;
0:
00
1<
0?
#940000
0"
0+
0,
#950000
1"
1+
1,
0@!
1?!
0A!
0B!
10
#960000
0"
0+
0,
#970000
1"
1+
1,
1B!
18
1:
00
#976562
1!
17
#980000
0"
0+
0,
#990000
1"
1+
1,
1A!
0B!
08
10
#1000000
0"
0+
0,
#1010000
1"
1+
1,
1B!
1>
0:
00
1?
#1020000
0"
0+
0,
#1030000
1"
1+
1,
1@!
0A!
0B!
1=
10
#1040000
0"
0+
0,
#1050000
1"
1+
1,
1B!
0=
1:
00
#1060000
0"
0+
0,
#1070000
1"
1+
1,
1A!
0B!
1f
1=
10
#1080000
0"
0+
0,
#1090000
1"
1+
1,
1B!
0f
0>
0=
0;
13
01
0:
00
02
1A
0<
0?
#1100000
0"
0+
0,
#1110000
1"
1+
1,
1=!
0@!
0?!
0A!
0>!
0B!
03
1e
14
10
0A
04
15
1A
05
#1120000
0"
0+
0,
#1130000
1"
1+
1,
1B!
18
1:
00
#1140000
0"
0+
0,
#1150000
1"
1+
1,
1A!
0B!
08
10
#1160000
0"
0+
0,
#1170000
1"
1+
1,
1B!
1>
0:
00
1?
#1180000
0"
0+
0,
#1190000
1"
1+
1,
1@!
0A!
0B!
10
#1200000
0"
0+
0,
#1210000
1"
1+
1,
1B!
1:
00
#1220000
0"
0+
0,
#1230000
1"
1+
1,
1A!
0B!
1f
10
1i
#1240000
0"
0+
0,
#1250000
1"
1+
1,
13!
1B!
1g
0f
0>
1;
0:
00
0i
1<
0?
#1260000
0"
0+
0,
#1270000
1"
1+
1,
0@!
1?!
0A!
0B!
0g
0e
10
#1280000
0"
0+
0,
#1290000
1"
1+
1,
1B!
18
1:
00
#1300000
0"
0+
0,
#1310000
1"
1+
1,
1A!
0B!
08
10
#1320000
0"
0+
0,
#1330000
1"
1+
1,
1B!
1>
0:
00
1?
#1340000
0"
0+
0,
#1350000
1"
1+
1,
1@!
0A!
0B!
1=
10
#1360000
0"
0+
0,
#1370000
1"
1+
1,
1B!
0=
1:
00
#1380000
0"
0+
0,
#1390000
1"
1+
1,
1A!
0B!
1f
1=
10
#1400000
0"
0+
0,
#1410000
1"
1+
1,
1B!
1g
0f
0>
0=
0;
11
0:
00
12
0<
0?
#1420000
0"
0+
0,
#1430000
1"
1+
1,
0@!
0?!
0A!
1>!
0B!
0g
10
#1440000
0"
0+
0,
#1450000
1"
1+
1,
1B!
18
1:
00
#1460000
0"
0+
0,
#1464843
0!
07
#1470000
1"
1+
1,
1A!
0B!
08
10
#1480000
0"
0+
0,
#1490000
1"
1+
1,
1B!
1>
0:
00
1?
#1500000
0"
0+
0,
#1510000
1"
1+
1,
1@!
0A!
0B!
10
#1520000
0"
0+
0,
#1530000
1"
1+
1,
1B!
1:
00
#1540000
0"
0+
0,
#1550000
1"
1+
1,
1A!
0B!
1f
10
#1560000
0"
0+
0,
#1570000
1"
1+
1,
1B!
0f
0>
1;
0:
00
1<
0?
#1580000
0"
0+
0,
#1590000
1"
1+
1,
0@!
1?!
0A!
0B!
1e
10
#1600000
0"
0+
0,
#1610000
1"
1+
1,
1B!
18
1:
00
#1620000
0"
0+
0,
#1630000
1"
1+
1,
1A!
0B!
08
10
#1640000
0"
0+
0,
#1650000
1"
1+
1,
1B!
1>
0:
00
1?
#1660000
0"
0+
0,
#1670000
1"
1+
1,
1@!
0A!
0B!
1=
10
#1680000
0"
0+
0,
#1690000
1"
1+
1,
1B!
0=
1:
00
#1700000
0"
0+
0,
#1710000
1"
1+
1,
1A!
0B!
1f
1=
10
1i
#1720000
0"
0+
0,
#1730000
1"
1+
1,
14!
03!
1B!
0f
0>
0=
0;
13
01
0:
00
14
0i
02
0A
0<
0?
15
#1740000
0"
0+
0,
#1750000
1"
1+
1,
0=!
0@!
0?!
0A!
1<!
0>!
0B!
03
0e
10
1A
0A
#1760000
0"
0+
0,
#1770000
1"
1+
1,
1B!
18
1:
00
#1780000
0"
0+
0,
#1790000
1"
1+
1,
1A!
0B!
08
10
#1800000
0"
0+
0,
#1810000
1"
1+
1,
1B!
1>
0:
00
1?
#1820000
0"
0+
0,
#1830000
1"
1+
1,
1@!
0A!
0B!
10
#1840000
0"
0+
0,
#1850000
1"
1+
1,
1B!
1:
00
#1860000
0"
0+
0,
#1870000
1"
1+
1,
1A!
0B!
1f
10
#1880000
0"
0+
0,
#1890000
1"
1+
1,
1B!
1g
0f
0>
1;
0:
00
1<
0?
#1900000
0"
0+
0,
#1910000
1"
1+
1,
0@!
1?!
0A!
0B!
0g
10
#1920000
0"
0+
0,
#1930000
1"
1+
1,
1B!
18
1:
00
#1940000
0"
0+
0,
#1950000
1"
1+
1,
1A!
0B!
08
10
#1953124
1!
17
#1960000
0"
0+
0,
#1970000
1"
1+
1,
1B!
1>
0:
00
1?
#1980000
0"
0+
0,
#1990000
1"
1+
1,
1@!
0A!
0B!
1=
10
#2000000
0"
0+
0,
#2010000
1"
1+
1,
1B!
0=
1:
00
#2020000
0"
0+
0,
#2030000
1"
1+
1,
1A!
0B!
1f
1=
10
#2040000
0"
0+
0,
#2050000
1"
1+
1,
1B!
1g
0f
0>
0=
0;
11
0:
00
12
0<
0?
#2060000
0"
0+
0,
#2070000
1"
1+
1,
0@!
0?!
0A!
1>!
0B!
0g
1e
10
#2080000
0"
0+
0,
#2090000
1"
1+
1,
1B!
18
1:
00
#2100000
0"
0+
0,
#2110000
1"
1+
1,
1A!
0B!
08
10
#2120000
0"
0+
0,
#2130000
1"
1+
1,
1B!
1>
0:
00
1?
#2140000
0"
0+
0,
#2150000
1"
1+
1,
1@!
0A!
0B!
10
#2160000
0"
0+
0,
#2170000
1"
1+
1,
1B!
1:
00
#2180000
0"
0+
0,
#2190000
1"
1+
1,
1A!
0B!
1f
10
1i
#2200000
0"
0+
0,
#2210000
1"
1+
1,
15!
04!
13!
1B!
0f
0>
1;
0:
00
1k
0i
1<
0?
#2220000
0"
0+
0,
#2230000
1"
1+
1,
0@!
1?!
0A!
0B!
0e
10
#2240000
0"
0+
0,
#2250000
1"
1+
1,
1B!
18
1:
00
#2260000
0"
0+
0,
#2270000
1"
1+
1,
1A!
0B!
08
10
#2280000
0"
0+
0,
#2290000
1"
1+
1,
1B!
1>
0:
00
1?
#2300000
0"
0+
0,
#2310000
1"
1+
1,
1@!
0A!
0B!
1=
10
#2320000
0"
0+
0,
#2330000
1"
1+
1,
1B!
0=
1:
00
#2340000
0"
0+
0,
#2350000
1"
1+
1,
1A!
0B!
1f
1=
10
#2360000
0"
0+
0,
#2370000
1"
1+
1,
1B!
0f
0>
0=
0;
13
01
0:
00
02
1A
0<
0?
#2380000
0"
0+
0,
#2390000
1"
1+
1,
1=!
0@!
0?!
0A!
0>!
0B!
03
1C
04
10
0A
0C
14
05
1D
1A
15
0D
#2400000
0"
0+
0,
#2410000
1"
1+
1,
1B!
18
1:
00
#2420000
0"
0+
0,
#2430000
1"
1+
1,
1A!
0B!
08
10
#2440000
0"
0+
0,
#2450000
1"
1+
1,
1B!
1>
0:
00
1?
#2460000
0"
0+
0,
#2470000
1"
1+
1,
1@!
0A!
0B!
10
#2480000
0"
0+
0,
#2490000
1"
1+
1,
1B!
1:
00
#2500000
0"
0+
0,
#2510000
1"
1+
1,
1A!
0B!
1f
10
#2520000
0"
0+
0,
#2530000
1"
1+
1,
1B!
1g
0f
0>
1;
0:
00
1<
0?
#2540000
0"
0+
0,
#2550000
1"
1+
1,
0@!
1?!
0A!
0B!
0g
1h
16
10
#2560000
0"
0+
0,
#2570000
1"
1+
1,
1B!
18
1:
00
#2580000
0"
0+
0,
#2590000
1"
1+
1,
1A!
0B!
08
10
#2600000
0"
0+
0,
#2610000
1"
1+
1,
1B!
1>
0:
00
1?
#2620000
0"
0+
0,
#2630000
1"
1+
1,
1@!
0A!
0B!
1=
10
#2640000
0"
0+
0,
#2650000
1"
1+
1,
1B!
0=
1:
00
#2660000
0"
0+
0,
#2670000
1"
1+
1,
1A!
0B!
1f
1=
10
#2680000
0"
0+
0,
#2690000
1"
1+
1,
1B!
1g
0f
0>
0=
0;
11
0:
00
1i
12
0<
0?
#2700000
0"
0+
0,
#2710000
1"
1+
1,
16!
05!
14!
0@!
0?!
0A!
1>!
0B!
0g
0h
06
10
0k
0i
#2720000
0"
0+
0,
#2730000
1"
1+
1,
1B!
18
1:
00
#2740000
0"
0+
0,
#2750000
1"
1+
1,
1A!
0B!
08
10
#2760000
0"
0+
0,
#2770000
1"
1+
1,
1B!
1>
0:
00
1?
#2780000
0"
0+
0,
#2790000
1"
1+
1,
1@!
0A!
0B!
10
#2800000
0"
0+
0,
#2810000
1"
1+
1,
1B!
1:
00
#2820000
0"
0+
0,
#2830000
1"
1+
1,
1A!
0B!
1f
10
#2840000
0"
0+
0,
#2850000
1"
1+
1,
1B!
0f
0>
1;
0:
00
1<
0?
#2860000
0"
0+
0,
#2870000
1"
1+
1,
0@!
1?!
0A!
0B!
1h
16
10
#2880000
0"
0+
0,
#2890000
1"
1+
1,
1B!
18
1:
00
#2900000
0"
0+
0,
#2910000
1"
1+
1,
1A!
0B!
08
10
#2920000
0"
0+
0,
#2930000
1"
1+
1,
1B!
1>
0:
00
1?
#2940000
0"
0+
0,
#2950000
1"
1+
1,
1@!
0A!
0B!
1=
10
#2960000
0"
0+
0,
#2970000
1"
1+
1,
1B!
0=
1:
00
#2980000
0"
0+
0,
#2990000
1"
1+
1,
1A!
0B!
1f
1=
10
#3000000
0"
0+
0,
#3010000
1"
1+
1,
1B!
0f
0>
0=
0;
13
01
0:
00
1C
04
02
0A
0<
0?
05
1D
#3020000
0"
0+
0,
#3030000
1"
1+
1,
1;!
0=!
0@!
0?!
0A!
0<!
0>!
0B!
1f
03
06
10
1A
0A
#3040000
0"
0+
0,
#3050000
1"
1+
1,
1B!
0f
18
1:
00
#3060000
0"
0+
0,
#3070000
1"
1+
1,
1A!
0B!
08
10
#3080000
0"
0+
0,
#3090000
1"
1+
1,
1B!
1>
0:
00
1?
#3100000
0"
0+
0,
#3110000
1"
1+
1,
1@!
0A!
0B!
10
#3120000
0"
0+
0,
#3130000
1"
1+
1,
1B!
1:
00
#3140000
0"
0+
0,
#3150000
1"
1+
1,
1A!
0B!
10
#3160000
0"
0+
0,
#3170000
1"
1+
1,
1B!
1g
0>
1;
0:
00
1i
1<
0?
#3180000
0"
0+
0,
#3190000
1"
1+
1,
17!
06!
15!
0@!
1?!
0A!
0B!
0g
1f
0h
10
1k
0i
#3200000
0"
0+
0,
#3210000
1"
1+
1,
1B!
0f
18
1:
00
#3220000
0"
0+
0,
#3230000
1"
1+
1,
1A!
0B!
08
10
#3240000
0"
0+
0,
#3250000
1"
1+
1,
1B!
1>
0:
00
1?
#3260000
0"
0+
0,
#3270000
1"
1+
1,
1@!
0A!
0B!
1=
10
#3280000
0"
0+
0,
#3290000
1"
1+
1,
1B!
0=
1:
00
#3300000
0"
0+
0,
#3310000
1"
1+
1,
1A!
0B!
1=
10
#3320000
0"
0+
0,
#3330000
1"
1+
1,
1B!
1g
0>
0=
0;
11
0:
00
12
0<
0?
#3340000
0"
0+
0,
#3350000
1"
1+
1,
0@!
0?!
0A!
1>!
0B!
0g
1f
1h
10
#3360000
0"
0+
0,
#3370000
1"
1+
1,
1B!
0f
18
1:
00
#3380000
0"
0+
0,
#3390000
1"
1+
1,
1A!
0B!
08
10
#3400000
0"
0+
0,
#3410000
1"
1+
1,
1B!
1>
0:
00
1?
#3420000
0"
0+
0,
#3430000
1"
1+
1,
1@!
0A!
0B!
10
#3440000
0"
0+
0,
#3450000
1"
1+
1,
1B!
1:
00
#3460000
0"
0+
0,
#3470000
1"
1+
1,
1A!
0B!
10
#3480000
0"
0+
0,
#3490000
1"
1+
1,
1B!
0>
1;
0:
00
1<
0?
#3500000
0"
0+
0,
#3510000
1"
1+
1,
0@!
1?!
0A!
0B!
1f
0h
10
#3520000
0"
0+
0,
#3530000
1"
1+
1,
1B!
0f
18
1:
00
#3540000
0"
0+
0,
#3550000
1"
1+
1,
1A!
0B!
08
10
#3560000
0"
0+
0,
#3570000
1"
1+
1,
1B!
1>
0:
00
1?
#3580000
0"
0+
0,
#3590000
1"
1+
1,
1@!
0A!
0B!
1=
10
#3600000
0"
0+
0,
#3610000
1"
1+
1,
1B!
0=
1:
00
#3620000
0"
0+
0,
#3630000
1"
1+
1,
1A!
0B!
1=
10
#3640000
0"
0+
0,
#3650000
1"
1+
1,
1B!
0>
0=
0;
13
01
0:
00
02
1A
0<
0?
#3660000
0"
0+
0,
#3670000
1"
1+
1,
1=!
0@!
0?!
0A!
0>!
0B!
1f
03
1e
14
10
0A
1i
04
15
1A
05
#3680000
0"
0+
0,
#3690000
1"
1+
1,
18!
07!
16!
1B!
0f
18
1:
00
0i
#3700000
0"
0+
0,
#3710000
1"
1+
1,
1A!
0B!
08
10
#3720000
0"
0+
0,
#3730000
1"
1+
1,
1B!
1>
0:
00
1?
#3740000
0"
0+
0,
#3750000
1"
1+
1,
1@!
0A!
0B!
10
#3760000
0"
0+
0,
#3770000
1"
1+
1,
1B!
1:
00
#3780000
0"
0+
0,
#3790000
1"
1+
1,
1A!
0B!
10
#3800000
0"
0+
0,
#3810000
1"
1+
1,
1B!
1g
0>
1;
0:
00
1<
0?
#3820000
0"
0+
0,
#3830000
1"
1+
1,
0@!
1?!
0A!
0B!
0g
1f
0e
10
#3840000
0"
0+
0,
#3850000
1"
1+
1,
1B!
0f
18
1:
00
#3860000
0"
0+
0,
#3870000
1"
1+
1,
1A!
0B!
08
10
#3880000
0"
0+
0,
#3890000
1"
1+
1,
1B!
1>
0:
00
1?
#3900000
0"
0+
0,
#3910000
1"
1+
1,
1@!
0A!
0B!
1=
10
#3920000
0"
0+
0,
#3930000
1"
1+
1,
1B!
0=
1:
00
#3940000
0"
0+
0,
#3950000
1"
1+
1,
1A!
0B!
1=
10
#3960000
0"
0+
0,
#3970000
1"
1+
1,
1B!
1g
0>
0=
0;
11
0:
00
12
0<
0?
#3980000
0"
0+
0,
#3990000
1"
1+
1,
0@!
0?!
0A!
1>!
0B!
0g
1f
10
#4000000
0"
0+
0,
#4010000
1"
1+
1,
1B!
0f
18
1:
00
#4020000
0"
0+
0,
#4030000
1"
1+
1,
1A!
0B!
08
10
#4040000
0"
0+
0,
#4050000
1"
1+
1,
1B!
1>
0:
00
1?
#4060000
0"
0+
0,
#4070000
1"
1+
1,
1@!
0A!
0B!
10
#4080000
0"
0+
0,
#4090000
1"
1+
1,
1B!
1:
00
#4100000
0"
0+
0,
#4110000
1"
1+
1,
1A!
0B!
10
#4120000
0"
0+
0,
#4130000
1"
1+
1,
1B!
0>
1;
0:
00
1<
0?
#4140000
0"
0+
0,
#4150000
1"
1+
1,
0@!
1?!
0A!
0B!
1f
1e
10
1i
#4160000
0"
0+
0,
#4170000
1"
1+
1,
19!
08!
17!
1B!
0f
18
1:
00
1j
0i
#4180000
0"
0+
0,
#4190000
1"
1+
1,
1A!
0B!
08
10
#4200000
0"
0+
0,
#4210000
1"
1+
1,
1B!
1>
0:
00
1?
#4220000
0"
0+
0,
#4230000
1"
1+
1,
1@!
0A!
0B!
1=
10
#4240000
0"
0+
0,
#4250000
1"
1+
1,
1B!
0=
1:
00
#4260000
0"
0+
0,
#4270000
1"
1+
1,
1A!
0B!
1=
10
#4280000
0"
0+
0,
#4290000
1"
1+
1,
1B!
0>
0=
0;
13
01
0:
00
14
02
0A
0<
0?
15
#4300000
0"
0+
0,
#4310000
1"
1+
1,
0=!
0@!
0?!
0A!
1<!
0>!
0B!
1f
03
0e
10
1A
0A
#4320000
0"
0+
0,
#4330000
1"
1+
1,
1B!
0f
18
1:
00
#4340000
0"
0+
0,
#4350000
1"
1+
1,
1A!
0B!
08
10
#4360000
0"
0+
0,
#4370000
1"
1+
1,
1B!
1>
0:
00
1?
#4380000
0"
0+
0,
#4390000
1"
1+
1,
1@!
0A!
0B!
10
#4394529
0!
07
#4400000
0"
0+
0,
#4410000
1"
1+
1,
1B!
1:
00
#4420000
0"
0+
0,
#4430000
1"
1+
1,
1A!
0B!
10
#4440000
0"
0+
0,
#4450000
1"
1+
1,
1B!
1g
0>
1;
0:
00
1<
0?
#4460000
0"
0+
0,
#4470000
1"
1+
1,
0@!
1?!
0A!
0B!
0g
1f
10
#4480000
0"
0+
0,
#4490000
1"
1+
1,
1B!
0f
18
1:
00
#4500000
0"
0+
0,
#4510000
1"
1+
1,
1A!
0B!
08
10
#4520000
0"
0+
0,
#4530000
1"
1+
1,
1B!
1>
0:
00
1?
#4540000
0"
0+
0,
#4550000
1"
1+
1,
1@!
0A!
0B!
1=
10
#4560000
0"
0+
0,
#4570000
1"
1+
1,
1B!
0=
1:
00
#4580000
0"
0+
0,
#4590000
1"
1+
1,
1A!
0B!
1=
10
#4600000
0"
0+
0,
#4610000
1"
1+
1,
1B!
1g
0>
0=
0;
11
0:
00
12
0<
0?
#4620000
0"
0+
0,
#4630000
1"
1+
1,
0@!
0?!
0A!
1>!
0B!
0g
1f
1e
10
1i
#4640000
0"
0+
0,
#4650000
1"
1+
1,
1:!
09!
18!
03!
1B!
0f
18
1:
00
0j
0i
#4660000
0"
0+
0,
#4670000
1"
1+
1,
1A!
0B!
08
10
#4680000
0"
0+
0,
#4690000
1"
1+
1,
1B!
1>
0:
00
1?
#4700000
0"
0+
0,
#4710000
1"
1+
1,
1@!
0A!
0B!
10
#4720000
0"
0+
0,
#4730000
1"
1+
1,
1B!
1:
00
#4740000
0"
0+
0,
#4750000
1"
1+
1,
1A!
0B!
10
#4760000
0"
0+
0,
#4770000
1"
1+
1,
1B!
0>
1;
0:
00
1<
0?
#4780000
0"
0+
0,
#4790000
1"
1+
1,
0@!
1?!
0A!
0B!
1f
0e
10
#4800000
0"
0+
0,
#4810000
1"
1+
1,
1B!
0f
18
1:
00
#4820000
0"
0+
0,
#4830000
1"
1+
1,
1A!
0B!
08
10
#4840000
0"
0+
0,
#4850000
1"
1+
1,
1B!
1>
0:
00
1?
#4860000
0"
0+
0,
#4870000
1"
1+
1,
1@!
0A!
0B!
1=
10
#4880000
0"
0+
0,
#4882810
1!
17
#4890000
1"
1+
1,
1B!
0=
1:
00
#4900000
0"
0+
0,
#4910000
1"
1+
1,
1A!
0B!
1=
10
#4920000
0"
0+
0,
#4930000
1"
1+
1,
1B!
0>
0=
0;
13
01
0:
00
02
1A
0<
0?
#4940000
0"
0+
0,
#4950000
1"
1+
1,
1=!
0@!
0?!
0A!
0>!
0B!
1f
03
0C
04
10
0A
1C
14
05
0D
1A
15
1D
#4960000
0"
0+
0,
#4970000
1"
1+
1,
1B!
0f
18
1:
00
#4980000
0"
0+
0,
