source/test11UARTup_CAM_RAM/simulation/qsim/test11.msim.vcd
$comment
	File created using the following command:
		vcd file test11.msim.vcd -direction
$end
$date
	Fri Aug 05 18:07:17 2016
$end
$version
	ModelSim Version 10.4d
$end
$timescale
	1ps
$end

$scope module test11_vlg_vec_tst $end
$var reg 1 ! PinRX $end
$var reg 1 " clk $end
$var wire 1 # PinTX $end

$scope module i1 $end
$var wire 1 $ gnd $end
$var wire 1 % vcc $end
$var wire 1 & unknown $end
$var tri1 1 ' devclrn $end
$var tri1 1 ( devpor $end
$var tri1 1 ) devoe $end
$var wire 1 * ~QUARTUS_CREATED_GND~I_combout $end
$var wire 1 + clk~input_o $end
$var wire 1 , clk~inputCLKENA0_outclk $end
$var wire 1 - comb_26|clok2048MbodCounterTX[1]~DUPLICATE_q $end
$var wire 1 . comb_26|clok2048MbodCounterTX[2]~0_combout $end
$var wire 1 / comb_26|clok2048MbodCounterTX[3]~4_combout $end
$var wire 1 0 comb_26|clok2048MbodCounterTX[3]~DUPLICATE_q $end
$var wire 1 1 comb_26|clok2048MbodCounterTX[2]~DUPLICATE_q $end
$var wire 1 2 comb_26|clok2048MbodCounterTX[4]~3_combout $end
$var wire 1 3 comb_26|clok2048MbodCounterTX[4]~DUPLICATE_q $end
$var wire 1 4 comb_26|clok2048MbodCounterTX[0]~2_combout $end
$var wire 1 5 comb_26|clok2048MbodCounterTX[1]~1_combout $end
$var wire 1 6 comb_26|Equal6~0_combout $end
$var wire 1 7 PinRX~input_o $end
$var wire 1 8 comb_26|clok2048MbodCounterRX[1]~4_combout $end
$var wire 1 9 comb_26|Add0~0_combout $end
$var wire 1 : comb_26|clok2048MbodCounterRX[3]~0_combout $end
$var wire 1 ; comb_26|Equal2~0_combout $end
$var wire 1 < comb_26|clok2048MbodCounterRX[0]~3_combout $end
$var wire 1 = comb_26|clok2048MbodCounterRX[2]~5_combout $end
$var wire 1 > comb_26|clok2048MbodCounterRX[4]~1_combout $end
$var wire 1 ? comb_26|clok2048MbodCounterRX[4]~2_combout $end
$var wire 1 @ comb_26|dataCounter~0_combout $end
$var wire 1 A comb_26|dataCounter~3_combout $end
$var wire 1 B comb_26|dataCounter~4_combout $end
$var wire 1 C comb_26|dataCounter~7_combout $end
$var wire 1 D comb_26|dataCounter~1_combout $end
$var wire 1 E comb_26|Equal0~0_combout $end
$var wire 1 F comb_26|dataCounter~2_combout $end
$var wire 1 G comb_26|dataCounter~5_combout $end
$var wire 1 H comb_26|dataCounter~6_combout $end
$var wire 1 I comb_26|always0~1_combout $end
$var wire 1 J comb_26|flagOUT_DataResive~0_combout $end
$var wire 1 K comb_26|flagOUT_DataResive~1_combout $end
$var wire 1 L comb_26|flagOUT_DataResive~q $end
$var wire 1 M counterDataTransmitOff[0]~0_combout $end
$var wire 1 N counterDataTransmitOff[1]~1_combout $end
$var wire 1 O ActionTransmitByte~0_combout $end
$var wire 1 P ActionTransmitByte~q $end
$var wire 1 Q comb_26|dataCounterTX[0]~DUPLICATE_q $end
$var wire 1 R comb_26|shiftRegTX[0]~1_combout $end
$var wire 1 S comb_26|dataCounterTX~2_combout $end
$var wire 1 T comb_26|Equal9~0_combout $end
$var wire 1 U comb_26|dataCounterTX~3_combout $end
$var wire 1 V comb_26|dataCounterTX~4_combout $end
$var wire 1 W comb_26|Equal9~1_combout $end
$var wire 1 X comb_26|Equal6~1_combout $end
$var wire 1 Y comb_26|shiftRegTX~0_combout $end
$var wire 1 Z comb_26|dataCounterTX~6_combout $end
$var wire 1 [ comb_26|dataCounterTX[1]~DUPLICATE_q $end
$var wire 1 \ comb_26|dataCounterTX[3]~DUPLICATE_q $end
$var wire 1 ] comb_26|dataCounterTX~0_combout $end
$var wire 1 ^ comb_26|dataCounterTX~1_combout $end
$var wire 1 _ comb_26|dataCounterTX[2]~5_combout $end
$var wire 1 ` comb_26|dataCounterTX[2]~DUPLICATE_q $end
$var wire 1 a comb_26|PinTX~0_combout $end
$var wire 1 b comb_26|dataIN[0]~0_combout $end
$var wire 1 c comb_26|dataIN[6]~feeder_combout $end
$var wire 1 d comb_26|always0~0_combout $end
$var wire 1 e comb_26|shiftRegTX~10_combout $end
$var wire 1 f comb_26|shiftRegTX~9_combout $end
$var wire 1 g comb_26|shiftRegTX[0]~3_combout $end
$var wire 1 h comb_26|shiftRegTX~8_combout $end
$var wire 1 i comb_26|shiftRegTX~7_combout $end
$var wire 1 j comb_26|shiftRegTX~6_combout $end
$var wire 1 k comb_26|shiftRegTX~5_combout $end
$var wire 1 l comb_26|shiftRegTX~4_combout $end
$var wire 1 m comb_26|shiftRegTX~2_combout $end
$var wire 1 n comb_26|PinTX~1_combout $end
$var wire 1 o comb_26|PinTX~2_combout $end
$var wire 1 p comb_26|PinTX~q $end
$var wire 1 q comb_26|clok2048MbodCounterTX [4] $end
$var wire 1 r comb_26|clok2048MbodCounterTX [3] $end
$var wire 1 s comb_26|clok2048MbodCounterTX [2] $end
$var wire 1 t comb_26|clok2048MbodCounterTX [1] $end
$var wire 1 u comb_26|clok2048MbodCounterTX [0] $end
$var wire 1 v comb_26|dataCounterTX [3] $end
$var wire 1 w comb_26|dataCounterTX [2] $end
$var wire 1 x comb_26|dataCounterTX [1] $end
$var wire 1 y comb_26|dataCounterTX [0] $end
$var wire 1 z comb_26|shiftRegTX [7] $end
$var wire 1 { comb_26|shiftRegTX [6] $end
$var wire 1 | comb_26|shiftRegTX [5] $end
$var wire 1 } comb_26|shiftRegTX [4] $end
$var wire 1 ~ comb_26|shiftRegTX [3] $end
$var wire 1 !! comb_26|shiftRegTX [2] $end
$var wire 1 "! comb_26|shiftRegTX [1] $end
$var wire 1 #! comb_26|shiftRegTX [0] $end
$var wire 1 $! comb_26|clok2048MbodCounterRX [4] $end
$var wire 1 %! comb_26|clok2048MbodCounterRX [3] $end
$var wire 1 &! comb_26|clok2048MbodCounterRX [2] $end
$var wire 1 '! comb_26|clok2048MbodCounterRX [1] $end
$var wire 1 (! comb_26|clok2048MbodCounterRX [0] $end
$var wire 1 )! counterDataTransmitOff [1] $end
$var wire 1 *! counterDataTransmitOff [0] $end
$var wire 1 +! comb_26|dataIN [7] $end
$var wire 1 ,! comb_26|dataIN [6] $end
$var wire 1 -! comb_26|dataIN [5] $end
$var wire 1 .! comb_26|dataIN [4] $end
$var wire 1 /! comb_26|dataIN [3] $end
$var wire 1 0! comb_26|dataIN [2] $end
$var wire 1 1! comb_26|dataIN [1] $end
$var wire 1 2! comb_26|dataIN [0] $end
$var wire 1 3! comb_26|dataCounter [3] $end
$var wire 1 4! comb_26|dataCounter [2] $end
$var wire 1 5! comb_26|dataCounter [1] $end
$var wire 1 6! comb_26|dataCounter [0] $end
$upscope $end
$upscope $end
$enddefinitions $end
#0
$dumpvars
1!
0"
1#
0$
1%
x&
1'
1(
1)
0*
0+
0,
0-
0.
0/
00
01
02
03
14
05
06
17
08
09
0:
0;
1<
0=
0>
0?
0@
0A
0B
0C
1D
1E
0F
0G
0H
1I
0J
0K
0L
0M
0N
0O
0P
0Q
0R
0S
0T
0U
0V
1W
0X
0Y
0Z
0[
0\
1]
0^
0_
0`
1a
0b
0c
0d
0e
0f
0g
0h
0i
0j
0k
0l
0m
0n
0o
0p
0u
0t
0s
0r
0q
0y
0x
0w
0v
0#!
0"!
0!!
0~
0}
0|
0{
0z
0(!
0'!
0&!
0%!
0$!
0*!
0)!
02!
01!
00!
0/!
0.!
0-!
0,!
0+!
06!
05!
04!
03!
$end
#10000
1"
1+
1,
1(!
1u
15
04
0<
18
#20000
0"
0+
0,
#30000
1"
1+
1,
0(!
1'!
1t
0u
1-
14
1<
#40000
0"
0+
0,
#50000
1"
1+
1,
1(!
1u
05
04
1.
1=
0<
08
#60000
0"
0+
0,
#70000
1"
1+
1,
1&!
0(!
0'!
0t
0u
11
1s
0-
14
1<
#80000
0"
0+
0,
#90000
1"
1+
1,
1(!
1u
15
04
0<
18
#100000
0"
0+
0,
#110000
1"
1+
1,
0(!
1'!
1t
0u
1-
14
1<
#120000
0"
0+
0,
#130000
1"
1+
1,
1(!
1u
19
05
04
1/
0.
0=
0<
08
1:
#140000
0"
0+
0,
#150000
1"
1+
1,
0&!
0(!
1%!
0'!
0t
0u
01
10
0s
1r
0-
14
1<
#160000
0"
0+
0,
#170000
1"
1+
1,
1(!
1u
15
04
0<
18
#180000
0"
0+
0,
#190000
1"
1+
1,
0(!
1'!
1t
0u
1-
14
1<
#200000
0"
0+
0,
#210000
1"
1+
1,
1(!
1u
05
04
1.
1=
0<
08
#220000
0"
0+
0,
#230000
1"
1+
1,
1&!
0(!
0'!
0t
0u
11
1s
0-
14
1<
#240000
0"
0+
0,
#250000
1"
1+
1,
1(!
1u
15
04
0<
18
#260000
0"
0+
0,
#270000
1"
1+
1,
0(!
1'!
1t
0u
1-
14
1<
#280000
0"
0+
0,
#290000
1"
1+
1,
1(!
1u
1>
09
05
04
12
0/
0.
0=
0<
08
0:
1?
#300000
0"
0+
0,
#310000
1"
1+
1,
1$!
0&!
0(!
0%!
0'!
0t
0u
13
01
00
0s
0r
0-
1q
14
1<
#320000
0"
0+
0,
#330000
1"
1+
1,
1(!
1u
15
04
0<
18
#340000
0"
0+
0,
#350000
1"
1+
1,
0(!
1'!
1t
0u
1-
14
1<
#360000
0"
0+
0,
#370000
1"
1+
1,
1(!
1u
05
04
1.
1=
0<
08
#380000
0"
0+
0,
#390000
1"
1+
1,
1&!
0(!
0'!
0t
0u
11
1s
0-
14
1<
#400000
0"
0+
0,
#410000
1"
1+
1,
1(!
1u
15
04
0<
18
#420000
0"
0+
0,
#430000
1"
1+
1,
0(!
1'!
1t
0u
1-
14
1<
#440000
0"
0+
0,
#450000
1"
1+
1,
1(!
1u
19
05
04
1/
0.
0=
0<
08
1:
#460000
0"
0+
0,
#470000
1"
1+
1,
0&!
0(!
1%!
0'!
0t
0u
01
10
0s
1r
0-
1X
16
1@
0>
1;
02
0/
1<
0?
0<
0:
#480000
0"
0+
0,
#487623
0!
07
#490000
1"
1+
1,
0$!
0%!
03
00
0r
0q
0X
06
0@
0;
09
14
1F
1C
1B
1?
18
#500000
0"
0+
0,
#510000
1"
1+
1,
16!
13!
15!
1$!
1'!
1u
1>
0I
0E
0D
15
04
0F
1F
1<
#520000
0"
0+
0,
#530000
1"
1+
1,
1(!
1t
0u
1-
14
1=
0<
08
#540000
0"
0+
0,
#550000
1"
1+
1,
1&!
0(!
0'!
1u
05
04
1.
1<
#560000
0"
0+
0,
#570000
1"
1+
1,
1(!
0t
0u
11
1s
0-
14
0<
18
#580000
0"
0+
0,
#590000
1"
1+
1,
0(!
1'!
1u
15
04
1<
#600000
0"
0+
0,
#610000
1"
1+
1,
1(!
1t
0u
1-
19
14
0=
0<
08
1:
#620000
0"
0+
0,
#630000
1"
1+
1,
0&!
0(!
1%!
0'!
1u
1@
0>
1;
05
04
1/
0.
1<
0F
0?
0<
0:
#640000
0"
0+
0,
#650000
1"
1+
1,
06!
0$!
0%!
0t
0u
01
10
0s
1r
0-
0@
0;
09
1b
1A
14
1F
0b
0A
0B
0F
1<
1B
#660000
0"
0+
0,
#670000
1"
1+
1,
1(!
1u
15
04
0<
18
#680000
0"
0+
0,
#690000
1"
1+
1,
0(!
1'!
1t
0u
1-
14
1<
#700000
0"
0+
0,
#710000
1"
1+
1,
1(!
1u
05
04
1.
1=
0<
08
#720000
0"
0+
0,
#730000
1"
1+
1,
1&!
0(!
0'!
0t
0u
11
1s
0-
14
1<
#740000
0"
0+
0,
#750000
1"
1+
1,
1(!
1u
15
04
0<
18
#760000
0"
0+
0,
#770000
1"
1+
1,
0(!
1'!
1t
0u
1-
14
1<
#780000
0"
0+
0,
#790000
1"
1+
1,
1(!
1u
19
05
04
12
0/
0.
0=
0<
08
1:
#800000
0"
0+
0,
#810000
1"
1+
1,
0&!
0(!
1%!
0'!
0t
0u
13
01
00
0s
0r
0-
1q
14
1<
#820000
0"
0+
0,
#830000
1"
1+
1,
1(!
1u
15
04
0<
18
#840000
0"
0+
0,
#850000
1"
1+
1,
0(!
1'!
1t
0u
1-
14
1<
#860000
0"
0+
0,
#870000
1"
1+
1,
1(!
1u
05
04
1.
1=
0<
08
#880000
0"
0+
0,
#890000
1"
1+
1,
1&!
0(!
0'!
0t
0u
11
1s
0-
14
1<
#900000
0"
0+
0,
#910000
1"
1+
1,
1(!
1u
15
04
0<
18
#920000
0"
0+
0,
#930000
1"
1+
1,
0(!
1'!
1t
0u
1-
14
1<
#940000
0"
0+
0,
#950000
1"
1+
1,
1(!
1u
1>
09
05
04
1/
0.
0=
0<
08
0:
1?
#960000
0"
0+
0,
#970000
1"
1+
1,
1$!
0&!
0(!
0%!
0'!
0t
0u
01
10
0s
1r
0-
1X
16
02
0/
1<
#978779
1!
17
#980000
0"
0+
0,
#990000
1"
1+
1,
1(!
03
00
0r
0q
0X
06
14
0<
18
#1000000
0"
0+
0,
#1010000
1"
1+
1,
0(!
1'!
1u
15
04
1<
#1020000
0"
0+
0,
#1030000
1"
1+
1,
1(!
1t
0u
1-
14
1=
0<
08
#1040000
0"
0+
0,
#1050000
1"
1+
1,
1&!
0(!
0'!
1u
05
04
1.
1<
#1060000
0"
0+
0,
#1070000
1"
1+
1,
1(!
0t
0u
11
1s
0-
14
0<
18
#1080000
0"
0+
0,
#1090000
1"
1+
1,
0(!
1'!
1u
15
04
1<
#1100000
0"
0+
0,
#1110000
1"
1+
1,
1(!
1t
0u
1-
19
14
0=
0<
08
1:
#1120000
0"
0+
0,
#1130000
1"
1+
1,
0&!
0(!
1%!
0'!
1u
1@
0>
1;
05
04
1/
0.
1<
1b
1A
1F
0?
0<
0:
0B
#1140000
0"
0+
0,
#1150000
1"
1+
1,
1+!
16!
05!
0$!
0%!
0t
0u
01
10
0s
1r
0-
0@
0;
09
0A
14
1B
0F
1c
0b
0B
1F
1<
#1160000
0"
0+
0,
#1170000
1"
1+
1,
1(!
1u
15
04
0<
18
#1180000
0"
0+
0,
#1190000
1"
1+
1,
0(!
1'!
1t
0u
1-
14
1<
#1200000
0"
0+
0,
#1210000
1"
1+
1,
1(!
1u
05
04
1.
1=
0<
08
#1220000
0"
0+
0,
#1230000
1"
1+
1,
1&!
0(!
0'!
0t
0u
11
1s
0-
14
1<
#1240000
0"
0+
0,
#1250000
1"
1+
1,
1(!
1u
15
04
0<
18
#1260000
0"
0+
0,
#1270000
1"
1+
1,
0(!
1'!
1t
0u
1-
14
1<
#1280000
0"
0+
0,
#1290000
1"
1+
1,
1(!
1u
19
05
04
12
0/
0.
0=
0<
08
1:
#1300000
0"
0+
0,
#1310000
1"
1+
1,
0&!
0(!
1%!
0'!
0t
0u
13
01
00
0s
0r
0-
1q
14
1<
#1320000
0"
0+
0,
#1330000
1"
1+
1,
1(!
1u
15
04
0<
18
#1340000
0"
0+
0,
#1350000
1"
1+
1,
0(!
1'!
1t
0u
1-
14
1<
#1360000
0"
0+
0,
#1370000
1"
1+
1,
1(!
1u
05
04
1.
1=
0<
08
#1380000
0"
0+
0,
#1390000
1"
1+
1,
1&!
0(!
0'!
0t
0u
11
1s
0-
14
1<
#1400000
0"
0+
0,
#1410000
1"
1+
1,
1(!
1u
15
04
0<
18
#1420000
0"
0+
0,
#1430000
1"
1+
1,
0(!
1'!
1t
0u
1-
14
1<
#1440000
0"
0+
0,
#1450000
1"
1+
1,
1(!
1u
1>
09
05
04
1/
0.
0=
0<
08
0:
1?
#1460000
0"
0+
0,
#1464843
0!
07
#1470000
1"
1+
1,
1$!
0&!
0(!
0%!
0'!
0t
0u
01
10
0s
1r
0-
1X
16
02
0/
1<
#1480000
0"
0+
0,
#1490000
1"
1+
1,
1(!
03
00
0r
0q
0X
06
14
0<
18
#1500000
0"
0+
0,
#1510000
1"
1+
1,
0(!
1'!
1u
15
04
1<
#1520000
0"
0+
0,
#1530000
1"
1+
1,
1(!
1t
0u
1-
14
1=
0<
08
#1540000
0"
0+
0,
#1550000
1"
1+
1,
1&!
0(!
0'!
1u
05
04
1.
1<
#1560000
0"
0+
0,
#1570000
1"
1+
1,
1(!
0t
0u
11
1s
0-
14
0<
18
#1580000
0"
0+
0,
#1590000
1"
1+
1,
0(!
1'!
1u
15
04
1<
#1600000
0"
0+
0,
#1610000
1"
1+
1,
1(!
1t
0u
1-
19
14
0=
0<
08
1:
#1620000
0"
0+
0,
#1630000
1"
1+
1,
0&!
0(!
1%!
0'!
1u
1@
0>
1;
05
04
1/
0.
1<
1b
0F
0?
0<
0:
#1640000
0"
0+
0,
#1650000
1"
1+
1,
1,!
0+!
06!
0$!
0%!
0t
0u
01
10
0s
1r
0-
0@
0;
09
1G
1A
14
1F
0c
1f
0b
0G
0A
1B
1H
0C
0F
1<
0B
0H
1C
#1660000
0"
0+
0,
#1670000
1"
1+
1,
1(!
1u
15
04
0<
18
#1680000
0"
0+
0,
#1690000
1"
1+
1,
0(!
1'!
1t
0u
1-
14
1<
#1700000
0"
0+
0,
#1710000
1"
1+
1,
1(!
1u
05
04
1.
1=
0<
08
#1720000
0"
0+
0,
#1730000
1"
1+
1,
1&!
0(!
0'!
0t
0u
11
1s
0-
14
1<
#1740000
0"
0+
0,
#1750000
1"
1+
1,
1(!
1u
15
04
0<
18
#1760000
0"
0+
0,
#1770000
1"
1+
1,
0(!
1'!
1t
0u
1-
14
1<
#1780000
0"
0+
0,
#1790000
1"
1+
1,
1(!
1u
19
05
04
12
0/
0.
0=
0<
08
1:
#1800000
0"
0+
0,
#1810000
1"
1+
1,
0&!
0(!
1%!
0'!
0t
0u
13
01
00
0s
0r
0-
1q
14
1<
#1820000
0"
0+
0,
#1830000
1"
1+
1,
1(!
1u
15
04
0<
18
#1840000
0"
0+
0,
#1850000
1"
1+
1,
0(!
1'!
1t
0u
1-
14
1<
#1860000
0"
0+
0,
#1870000
1"
1+
1,
1(!
1u
05
04
1.
1=
0<
08
#1880000
0"
0+
0,
#1890000
1"
1+
1,
1&!
0(!
0'!
0t
0u
11
1s
0-
14
1<
#1900000
0"
0+
0,
#1910000
1"
1+
1,
1(!
1u
15
04
0<
18
#1920000
0"
0+
0,
#1930000
1"
1+
1,
0(!
1'!
1t
0u
1-
14
1<
#1940000
0"
0+
0,
#1950000
1"
1+
1,
1(!
1u
1>
09
05
04
1/
0.
0=
0<
08
0:
1?
#1953124
1!
17
#1960000
0"
0+
0,
#1970000
1"
1+
1,
1$!
0&!
0(!
0%!
0'!
0t
0u
01
10
0s
1r
0-
1X
16
02
0/
1<
#1980000
0"
0+
0,
#1990000
1"
1+
1,
1(!
03
00
0r
0q
0X
06
14
0<
18
#2000000
0"
0+
0,
#2010000
1"
1+
1,
0(!
1'!
1u
15
04
1<
#2020000
0"
0+
0,
#2030000
1"
1+
1,
1(!
1t
0u
1-
14
1=
0<
08
#2040000
0"
0+
0,
#2050000
1"
1+
1,
1&!
0(!
0'!
1u
05
04
1.
1<
#2060000
0"
0+
0,
#2070000
1"
1+
1,
1(!
0t
0u
11
1s
0-
14
0<
18
#2080000
0"
0+
0,
#2090000
1"
1+
1,
0(!
1'!
1u
15
04
1<
#2100000
0"
0+
0,
#2110000
1"
1+
1,
1(!
1t
0u
1-
19
14
0=
0<
08
1:
#2120000
0"
0+
0,
#2130000
1"
1+
1,
0&!
0(!
1%!
0'!
1u
1@
0>
1;
05
04
1/
0.
1<
1b
1G
1A
1F
0?
0<
0:
1B
1H
0C
#2140000
0"
0+
0,
#2150000
1"
1+
1,
1-!
0,!
1+!
14!
16!
03!
15!
0$!
0%!
0t
0u
01
10
0s
1r
0-
0@
0;
09
0G
0A
14
0B
0F
0H
1c
0f
1h
0b
1B
1H
1F
1<
#2160000
0"
0+
0,
#2170000
1"
1+
1,
1(!
1u
15
04
0<
18
#2180000
0"
0+
0,
#2190000
1"
1+
1,
0(!
1'!
1t
0u
1-
14
1<
#2200000
0"
0+
0,
#2210000
1"
1+
1,
1(!
1u
05
04
1.
1=
0<
08
#2220000
0"
0+
0,
#2230000
1"
1+
1,
1&!
0(!
0'!
0t
0u
11
1s
0-
14
1<
#2240000
0"
0+
0,
#2250000
1"
1+
1,
1(!
1u
15
04
0<
18
#2260000
0"
0+
0,
#2270000
1"
1+
1,
0(!
1'!
1t
0u
1-
14
1<
#2280000
0"
0+
0,
#2290000
1"
1+
1,
1(!
1u
19
05
04
12
0/
0.
0=
0<
08
1:
#2300000
0"
0+
0,
#2310000
1"
1+
1,
0&!
0(!
1%!
0'!
0t
0u
13
01
00
0s
0r
0-
1q
14
1<
#2320000
0"
0+
0,
#2330000
1"
1+
1,
1(!
1u
15
04
0<
18
#2340000
0"
0+
0,
#2350000
1"
1+
1,
0(!
1'!
1t
0u
1-
14
1<
#2360000
0"
0+
0,
#2370000
1"
1+
1,
1(!
1u
05
04
1.
1=
0<
08
#2380000
0"
0+
0,
#2390000
1"
1+
1,
1&!
0(!
0'!
0t
0u
11
1s
0-
14
1<
#2400000
0"
0+
0,
#2410000
1"
1+
1,
1(!
1u
15
04
0<
18
#2420000
0"
0+
0,
#2430000
1"
1+
1,
0(!
1'!
1t
0u
1-
14
1<
#2440000
0"
0+
0,
#2450000
1"
1+
1,
1(!
1u
1>
09
05
04
1/
0.
0=
0<
08
0:
1?
#2460000
0"
0+
0,
#2470000
1"
1+
1,
1$!
0&!
0(!
0%!
0'!
0t
0u
01
10
0s
1r
0-
1X
16
02
0/
1<
#2480000
0"
0+
0,
#2490000
1"
1+
1,
1(!
03
00
0r
0q
0X
06
14
0<
18
#2500000
0"
0+
0,
#2510000
1"
1+
1,
0(!
1'!
1u
15
04
1<
#2520000
0"
0+
0,
#2530000
1"
1+
1,
1(!
1t
0u
1-
14
1=
0<
08
#2540000
0"
0+
0,
#2550000
1"
1+
1,
1&!
0(!
0'!
1u
05
04
1.
1<
#2560000
0"
0+
0,
#2570000
1"
1+
1,
1(!
0t
0u
11
1s
0-
14
0<
18
#2580000
0"
0+
0,
#2590000
1"
1+
1,
0(!
1'!
1u
15
04
1<
#2600000
0"
0+
0,
#2610000
1"
1+
1,
1(!
1t
0u
1-
19
14
0=
0<
08
1:
#2620000
0"
0+
0,
#2630000
1"
1+
1,
0&!
0(!
1%!
0'!
1u
1@
0>
1;
05
04
1/
0.
1<
1b
0F
0?
0<
0:
#2640000
0"
0+
0,
#2650000
1"
1+
1,
1.!
0-!
1,!
06!
0$!
0%!
0t
0u
01
10
0s
1r
0-
0@
0;
09
1A
14
1F
1f
0h
1i
0b
0A
0B
0F
1<
1B
#2660000
0"
0+
0,
#2670000
1"
1+
1,
1(!
1u
15
04
0<
18
#2680000
0"
0+
0,
#2690000
1"
1+
1,
0(!
1'!
1t
0u
1-
14
1<
#2700000
0"
0+
0,
#2710000
1"
1+
1,
1(!
1u
05
04
1.
1=
0<
08
#2720000
0"
0+
0,
#2730000
1"
1+
1,
1&!
0(!
0'!
0t
0u
11
1s
0-
14
1<
#2740000
0"
0+
0,
#2750000
1"
1+
1,
1(!
1u
15
04
0<
18
#2760000
0"
0+
0,
#2770000
1"
1+
1,
0(!
1'!
1t
0u
1-
14
1<
#2780000
0"
0+
0,
#2790000
1"
1+
1,
1(!
1u
19
05
04
12
0/
0.
0=
0<
08
1:
#2800000
0"
0+
0,
#2810000
1"
1+
1,
0&!
0(!
1%!
0'!
0t
0u
13
01
00
0s
0r
0-
1q
14
1<
#2820000
0"
0+
0,
#2830000
1"
1+
1,
1(!
1u
15
04
0<
18
#2840000
0"
0+
0,
#2850000
1"
1+
1,
0(!
1'!
1t
0u
1-
14
1<
#2860000
0"
0+
0,
#2870000
1"
1+
1,
1(!
1u
05
04
1.
1=
0<
08
#2880000
0"
0+
0,
#2890000
1"
1+
1,
1&!
0(!
0'!
0t
0u
11
1s
0-
14
1<
#2900000
0"
0+
0,
#2910000
1"
1+
1,
1(!
1u
15
04
0<
18
#2920000
0"
0+
0,
#2930000
1"
1+
1,
0(!
1'!
1t
0u
1-
14
1<
#2940000
0"
0+
0,
#2950000
1"
1+
1,
1(!
1u
1>
09
05
04
1/
0.
0=
0<
08
0:
1?
#2960000
0"
0+
0,
#2970000
1"
1+
1,
1$!
0&!
0(!
0%!
0'!
0t
0u
01
10
0s
1r
0-
1X
16
02
0/
1<
#2980000
0"
0+
0,
#2990000
1"
1+
1,
1(!
03
00
0r
0q
0X
06
14
0<
18
#3000000
0"
0+
0,
#3010000
1"
1+
1,
0(!
1'!
1u
15
04
1<
#3020000
0"
0+
0,
#3030000
1"
1+
1,
1(!
1t
0u
1-
14
1=
0<
08
#3040000
0"
0+
0,
#3050000
1"
1+
1,
1&!
0(!
0'!
1u
05
04
1.
1<
#3060000
0"
0+
0,
#3070000
1"
1+
1,
1(!
0t
0u
11
1s
0-
14
0<
18
#3080000
0"
0+
0,
#3090000
1"
1+
1,
0(!
1'!
1u
15
04
1<
#3100000
0"
0+
0,
#3110000
1"
1+
1,
1(!
1t
0u
1-
19
14
0=
0<
08
1:
#3120000
0"
0+
0,
#3130000
1"
1+
1,
0&!
0(!
1%!
0'!
1u
1@
0>
1;
05
04
1/
0.
1<
1b
1A
1F
0?
0<
0:
0B
#3140000
0"
0+
0,
#3150000
1"
1+
1,
1/!
0.!
1-!
16!
05!
0$!
0%!
0t
0u
01
10
0s
1r
0-
0@
0;
09
0A
14
1B
0F
1h
0i
1j
0b
0B
1F
1<
#3160000
0"
0+
0,
#3170000
1"
1+
1,
1(!
1u
15
04
0<
18
#3180000
0"
0+
0,
#3190000
1"
1+
1,
0(!
1'!
1t
0u
1-
14
1<
#3200000
0"
0+
0,
#3210000
1"
1+
1,
1(!
1u
05
04
1.
1=
0<
08
#3220000
0"
0+
0,
#3230000
1"
1+
1,
1&!
0(!
0'!
0t
0u
11
1s
0-
14
1<
#3240000
0"
0+
0,
#3250000
1"
1+
1,
1(!
1u
15
04
0<
18
#3260000
0"
0+
0,
#3270000
1"
1+
1,
0(!
1'!
1t
0u
1-
14
1<
#3280000
0"
0+
0,
#3290000
1"
1+
1,
1(!
1u
19
05
04
12
0/
0.
0=
0<
08
1:
#3300000
0"
0+
0,
#3310000
1"
1+
1,
0&!
0(!
1%!
0'!
0t
0u
13
01
00
0s
0r
0-
1q
14
1<
#3320000
0"
0+
0,
#3330000
1"
1+
1,
1(!
1u
15
04
0<
18
#3340000
0"
0+
0,
#3350000
1"
1+
1,
0(!
1'!
1t
0u
1-
14
1<
#3360000
0"
0+
0,
#3370000
1"
1+
1,
1(!
1u
05
04
1.
1=
0<
08
#3380000
0"
0+
0,
#3390000
1"
1+
1,
1&!
0(!
0'!
0t
0u
11
1s
0-
14
1<
#3400000
0"
0+
0,
#3410000
1"
1+
1,
1(!
1u
15
04
0<
18
#3420000
0"
0+
0,
#3430000
1"
1+
1,
0(!
1'!
1t
0u
1-
14
1<
#3440000
0"
0+
0,
#3450000
1"
1+
1,
1(!
1u
1>
09
05
04
1/
0.
0=
0<
08
0:
1?
#3460000
0"
0+
0,
#3470000
1"
1+
1,
1$!
0&!
0(!
0%!
0'!
0t
0u
01
10
0s
1r
0-
1X
16
02
0/
1<
#3480000
0"
0+
0,
#3490000
1"
1+
1,
1(!
03
00
0r
0q
0X
06
14
0<
18
#3500000
0"
0+
0,
#3510000
1"
1+
1,
0(!
1'!
1u
15
04
1<
#3520000
0"
0+
0,
#3530000
1"
1+
1,
1(!
1t
0u
1-
14
1=
0<
08
#3540000
0"
0+
0,
#3550000
1"
1+
1,
1&!
0(!
0'!
1u
05
04
1.
1<
#3560000
0"
0+
0,
#3570000
1"
1+
1,
1(!
0t
0u
11
1s
0-
14
0<
18
#3580000
0"
0+
0,
#3590000
1"
1+
1,
0(!
1'!
1u
15
04
1<
#3600000
0"
0+
0,
#3610000
1"
1+
1,
1(!
1t
0u
1-
19
14
0=
0<
08
1:
#3620000
0"
0+
0,
#3630000
1"
1+
1,
0&!
0(!
1%!
0'!
1u
1@
0>
1;
05
04
1/
0.
1<
1b
0F
0?
0<
0:
#3640000
0"
0+
0,
#3650000
1"
1+
1,
10!
0/!
1.!
06!
0$!
0%!
0t
0u
01
10
0s
1r
0-
0@
0;
09
1G
1A
14
1F
1i
0j
1k
0b
0G
0A
1B
0H
0F
1<
0B
1H
#3660000
0"
0+
0,
#3670000
1"
1+
1,
1(!
1u
15
04
0<
18
#3680000
0"
0+
0,
#3690000
1"
1+
1,
0(!
1'!
1t
0u
1-
14
1<
#3700000
0"
0+
0,
#3710000
1"
1+
1,
1(!
1u
05
04
1.
1=
0<
08
#3720000
0"
0+
0,
#3730000
1"
1+
1,
1&!
0(!
0'!
0t
0u
11
1s
0-
14
1<
#3740000
0"
0+
0,
#3750000
1"
1+
1,
1(!
1u
15
04
0<
18
#3760000
0"
0+
0,
#3770000
1"
1+
1,
0(!
1'!
1t
0u
1-
14
1<
#3780000
0"
0+
0,
#3790000
1"
1+
1,
1(!
1u
19
05
04
12
0/
0.
0=
0<
08
1:
#3800000
0"
0+
0,
#3810000
1"
1+
1,
0&!
0(!
1%!
0'!
0t
0u
13
01
00
0s
0r
0-
1q
14
1<
#3820000
0"
0+
0,
#3830000
1"
1+
1,
1(!
1u
15
04
0<
18
#3840000
0"
0+
0,
#3850000
1"
1+
1,
0(!
1'!
1t
0u
1-
14
1<
#3860000
0"
0+
0,
#3870000
1"
1+
1,
1(!
1u
05
04
1.
1=
0<
08
#3880000
0"
0+
0,
#3890000
1"
1+
1,
1&!
0(!
0'!
0t
0u
11
1s
0-
14
1<
#3900000
0"
0+
0,
#3906248
0!
07
#3910000
1"
1+
1,
1(!
1u
15
04
0<
18
#3920000
0"
0+
0,
#3930000
1"
1+
1,
0(!
1'!
1t
0u
1-
14
1<
#3940000
0"
0+
0,
