source/test13UARTSetUp_PingPong_LoadedRAM/simulation/qsim/test13.msim.vcd
$comment
	File created using the following command:
		vcd file test13.msim.vcd -direction
$end
$date
	Sat Sep 03 16:20:58 2016
$end
$version
	ModelSim Version 10.4b
$end
$timescale
	1ps
$end

$scope module test13_vlg_vec_tst $end
$var reg 1 ! PinRX $end
$var reg 1 " clk $end
$var wire 1 # PinTX $end
$var wire 1 $ debugLED $end

$scope module i1 $end
$var wire 1 % gnd $end
$var wire 1 & vcc $end
$var wire 1 ' unknown $end
$var tri1 1 ( devclrn $end
$var tri1 1 ) devpor $end
$var tri1 1 * devoe $end
$var wire 1 + ~QUARTUS_CREATED_GND~I_combout $end
$var wire 1 , clk~input_o $end
$var wire 1 - clk~inputCLKENA0_outclk $end
$var wire 1 . ActionDataTransmitToUART~q $end
$var wire 1 / comb_32|dataCounter~5_combout $end
$var wire 1 0 comb_32|dataCounter~4_combout $end
$var wire 1 1 comb_32|clok2048MbodCounterRX~0_combout $end
$var wire 1 2 comb_32|clok2048MbodCounterRX~2_combout $end
$var wire 1 3 PinRX~input_o $end
$var wire 1 4 comb_32|clok2048MbodCounterRX[0]~1_combout $end
$var wire 1 5 comb_32|clok2048MbodCounterRX[1]~3_combout $end
$var wire 1 6 comb_32|Add0~0_combout $end
$var wire 1 7 comb_32|clok2048MbodCounterRX[2]~4_combout $end
$var wire 1 8 comb_32|Add0~2_combout $end
$var wire 1 9 comb_32|clok2048MbodCounterRX[4]~6_combout $end
$var wire 1 : comb_32|Add0~3_combout $end
$var wire 1 ; comb_32|clok2048MbodCounterRX[5]~7_combout $end
$var wire 1 < comb_32|LessThan0~0_combout $end
$var wire 1 = comb_32|dataCounter[0]~DUPLICATE_q $end
$var wire 1 > comb_32|dataCounter[1]~DUPLICATE_q $end
$var wire 1 ? comb_32|Equal0~1_combout $end
$var wire 1 @ comb_32|dataCounter~3_combout $end
$var wire 1 A comb_32|flagOUT_DataResive~0_combout $end
$var wire 1 B comb_32|dataCounter~1_combout $end
$var wire 1 C comb_32|Equal0~0_combout $end
$var wire 1 D comb_32|dataCounter~0_combout $end
$var wire 1 E comb_32|dataCounter~2_combout $end
$var wire 1 F comb_32|Equal2~0_combout $end
$var wire 1 G comb_32|Add0~1_combout $end
$var wire 1 H comb_32|clok2048MbodCounterRX[3]~5_combout $end
$var wire 1 I comb_32|always0~6_combout $end
$var wire 1 J comb_32|flagOUT_DataResive~1_combout $end
$var wire 1 K comb_32|flagOUT_DataResive~q $end
$var wire 1 L ActionDataTransmitToUART~0_combout $end
$var wire 1 M ActionDataTransmitToUART~DUPLICATE_q $end
$var wire 1 N comb_32|clok2048MbodCounterTX[0]~DUPLICATE_q $end
$var wire 1 O comb_32|dataCounterTX[0]~DUPLICATE_q $end
$var wire 1 P comb_32|always0~4_combout $end
$var wire 1 Q comb_32|clok2048MbodCounterTX[2]~6_combout $end
$var wire 1 R comb_32|clok2048MbodCounterTX[2]~DUPLICATE_q $end
$var wire 1 S comb_32|clok2048MbodCounterTX[3]~7_combout $end
$var wire 1 T comb_32|clok2048MbodCounterTX[3]~DUPLICATE_q $end
$var wire 1 U comb_32|Add2~0_combout $end
$var wire 1 V comb_32|dataCounterTX[2]~DUPLICATE_q $end
$var wire 1 W comb_32|clok2048MbodCounterTX[5]~1_combout $end
$var wire 1 X comb_32|clok2048MbodCounterTX[5]~2_combout $end
$var wire 1 Y comb_32|clok2048MbodCounterTX[5]~DUPLICATE_q $end
$var wire 1 Z comb_32|always0~3_combout $end
$var wire 1 [ comb_32|Add2~1_combout $end
$var wire 1 \ comb_32|clok2048MbodCounterTX[4]~3_combout $end
$var wire 1 ] comb_32|clok2048MbodCounterTX[4]~4_combout $end
$var wire 1 ^ comb_32|clok2048MbodCounterTX[4]~DUPLICATE_q $end
$var wire 1 _ comb_32|always0~1_combout $end
$var wire 1 ` comb_32|dataCounterTX~4_combout $end
$var wire 1 a comb_32|dataCounterTX[2]~0_combout $end
$var wire 1 b comb_32|always0~2_combout $end
$var wire 1 c comb_32|clok2048MbodCounterTX[0]~0_combout $end
$var wire 1 d comb_32|clok2048MbodCounterTX[1]~5_combout $end
$var wire 1 e comb_32|clok2048MbodCounterTX[1]~DUPLICATE_q $end
$var wire 1 f comb_32|always0~0_combout $end
$var wire 1 g comb_32|dataCounterTX~2_combout $end
$var wire 1 h comb_32|dataCounterTX[1]~DUPLICATE_q $end
$var wire 1 i comb_32|dataCounterTX~1_combout $end
$var wire 1 j comb_32|dataCounterTX[0]~3_combout $end
$var wire 1 k comb_32|always0~5_combout $end
$var wire 1 l comb_32|always0~7_combout $end
$var wire 1 m comb_32|dataIN[0]~0_combout $end
$var wire 1 n comb_32|dataIN[1]~DUPLICATE_q $end
$var wire 1 o comb_32|shiftRegTX~8_combout $end
$var wire 1 p comb_32|shiftRegTX~7_combout $end
$var wire 1 q comb_32|shiftRegTX[0]~1_combout $end
$var wire 1 r comb_32|shiftRegTX~6_combout $end
$var wire 1 s comb_32|shiftRegTX~5_combout $end
$var wire 1 t comb_32|shiftRegTX~4_combout $end
$var wire 1 u comb_32|shiftRegTX~3_combout $end
$var wire 1 v comb_32|shiftRegTX~2_combout $end
$var wire 1 w comb_32|shiftRegTX~0_combout $end
$var wire 1 x comb_32|PinTX~1_combout $end
$var wire 1 y comb_32|PinTX~0_combout $end
$var wire 1 z comb_32|PinTX~2_combout $end
$var wire 1 { comb_32|PinTX~q $end
$var wire 1 | comb_32|dataCounterTX [3] $end
$var wire 1 } comb_32|dataCounterTX [2] $end
$var wire 1 ~ comb_32|dataCounterTX [1] $end
$var wire 1 !! comb_32|dataCounterTX [0] $end
$var wire 1 "! comb_32|clok2048MbodCounterTX [5] $end
$var wire 1 #! comb_32|clok2048MbodCounterTX [4] $end
$var wire 1 $! comb_32|clok2048MbodCounterTX [3] $end
$var wire 1 %! comb_32|clok2048MbodCounterTX [2] $end
$var wire 1 &! comb_32|clok2048MbodCounterTX [1] $end
$var wire 1 '! comb_32|clok2048MbodCounterTX [0] $end
$var wire 1 (! comb_32|shiftRegTX [7] $end
$var wire 1 )! comb_32|shiftRegTX [6] $end
$var wire 1 *! comb_32|shiftRegTX [5] $end
$var wire 1 +! comb_32|shiftRegTX [4] $end
$var wire 1 ,! comb_32|shiftRegTX [3] $end
$var wire 1 -! comb_32|shiftRegTX [2] $end
$var wire 1 .! comb_32|shiftRegTX [1] $end
$var wire 1 /! comb_32|shiftRegTX [0] $end
$var wire 1 0! comb_32|dataCounter [3] $end
$var wire 1 1! comb_32|dataCounter [2] $end
$var wire 1 2! comb_32|dataCounter [1] $end
$var wire 1 3! comb_32|dataCounter [0] $end
$var wire 1 4! DataBusToUART [7] $end
$var wire 1 5! DataBusToUART [6] $end
$var wire 1 6! DataBusToUART [5] $end
$var wire 1 7! DataBusToUART [4] $end
$var wire 1 8! DataBusToUART [3] $end
$var wire 1 9! DataBusToUART [2] $end
$var wire 1 :! DataBusToUART [1] $end
$var wire 1 ;! DataBusToUART [0] $end
$var wire 1 <! comb_32|clok2048MbodCounterRX [5] $end
$var wire 1 =! comb_32|clok2048MbodCounterRX [4] $end
$var wire 1 >! comb_32|clok2048MbodCounterRX [3] $end
$var wire 1 ?! comb_32|clok2048MbodCounterRX [2] $end
$var wire 1 @! comb_32|clok2048MbodCounterRX [1] $end
$var wire 1 A! comb_32|clok2048MbodCounterRX [0] $end
$var wire 1 B! comb_32|dataIN [7] $end
$var wire 1 C! comb_32|dataIN [6] $end
$var wire 1 D! comb_32|dataIN [5] $end
$var wire 1 E! comb_32|dataIN [4] $end
$var wire 1 F! comb_32|dataIN [3] $end
$var wire 1 G! comb_32|dataIN [2] $end
$var wire 1 H! comb_32|dataIN [1] $end
$var wire 1 I! comb_32|dataIN [0] $end
$upscope $end
$upscope $end
$enddefinitions $end
#0
$dumpvars
1!
0"
1#
0$
0%
1&
x'
1(
1)
1*
0+
0,
0-
0.
0/
00
11
02
13
04
05
06
07
08
09
0:
0;
0<
0=
0>
1?
0@
0A
0B
0C
0D
0E
1F
0G
0H
0I
0J
0K
0L
0M
0N
0O
1P
0Q
0R
0S
0T
0U
0V
1W
0X
0Y
0Z
0[
1\
0]
0^
0_
0`
0a
0b
1c
0d
0e
1f
0g
0h
1i
0j
0k
0l
0m
0n
0o
0p
0q
0r
0s
0t
0u
0v
0w
0x
1y
0z
0{
0!!
0~
0}
0|
0'!
0&!
0%!
0$!
0#!
0"!
0/!
0.!
0-!
0,!
0+!
0*!
0)!
0(!
03!
02!
01!
00!
0;!
0:!
09!
08!
07!
06!
05!
04!
0A!
0@!
0?!
0>!
0=!
0<!
0I!
0H!
0G!
0F!
0E!
0D!
0C!
0B!
$end
#10000
1"
1,
1-
1'!
1N
1d
0c
#20000
0"
0,
0-
#30000
1"
1,
1-
1e
0'!
1&!
0N
0f
1c
#40000
0"
0,
0-
#50000
1"
1,
1-
1'!
1N
0d
0c
1Q
#60000
0"
0,
0-
#70000
1"
1,
1-
0e
0'!
1R
1%!
0&!
0N
1c
#80000
0"
0,
0-
#90000
1"
1,
1-
1'!
1N
1d
0c
#100000
0"
0,
0-
#110000
1"
1,
1-
1e
0'!
1&!
0N
1c
#120000
0"
0,
0-
#130000
1"
1,
1-
1'!
1N
0d
0c
1S
0Q
#140000
0"
0,
0-
#150000
1"
1,
1-
0e
0'!
1T
1$!
0R
0%!
0&!
0N
1c
#160000
0"
0,
0-
#170000
1"
1,
1-
1'!
1N
1d
0c
#180000
0"
0,
0-
#190000
1"
1,
1-
1e
0'!
1&!
0N
1c
#200000
0"
0,
0-
#210000
1"
1,
1-
1'!
1N
0d
0c
1Q
#220000
0"
0,
0-
#230000
1"
1,
1-
0e
0'!
1R
1%!
0&!
0N
1c
#240000
0"
0,
0-
#250000
1"
1,
1-
1'!
1N
1d
0c
#260000
0"
0,
0-
#270000
1"
1,
1-
1e
0'!
1&!
0N
1c
#280000
0"
0,
0-
#290000
1"
1,
1-
1'!
1N
1[
0d
0c
0S
0Q
1]
#300000
0"
0,
0-
#310000
1"
1,
1-
0e
0'!
1^
1#!
0T
0$!
0R
0%!
0&!
0N
1f
0\
1c
#320000
0"
0,
0-
#330000
1"
1,
1-
1'!
1N
1d
0c
#340000
0"
0,
0-
#350000
1"
1,
1-
1e
0'!
1&!
0N
0f
1c
#360000
0"
0,
0-
#370000
1"
1,
1-
1'!
1N
0d
0c
1Q
#380000
0"
0,
0-
#390000
1"
1,
1-
0e
0'!
1R
1%!
0&!
0N
1c
#400000
0"
0,
0-
#410000
1"
1,
1-
1'!
1N
1d
0c
#420000
0"
0,
0-
#430000
1"
1,
1-
1e
0'!
1&!
0N
1c
#440000
0"
0,
0-
#450000
1"
1,
1-
1'!
1N
0d
0c
1S
0Q
#460000
0"
0,
0-
#470000
1"
1,
1-
0e
0'!
1T
1$!
0R
0%!
0&!
0N
1c
#480000
0"
0,
0-
#490000
1"
1,
1-
1'!
1N
1d
0c
#500000
0"
0,
0-
#510000
1"
1,
1-
1e
0'!
1&!
0N
1c
#520000
0"
0,
0-
#530000
1"
1,
1-
1'!
1N
0d
0c
1Q
#540000
0"
0,
0-
#550000
1"
1,
1-
0e
0'!
1R
1%!
0&!
0N
1c
#560000
0"
0,
0-
#570000
1"
1,
1-
1'!
1N
1d
0c
#580000
0"
0,
0-
#590000
1"
1,
1-
1e
0'!
1&!
0N
1c
#600000
0"
0,
0-
#610000
1"
1,
1-
1'!
1N
0[
1U
0d
0c
0S
0Q
1X
0]
#620000
0"
0,
0-
#630000
1"
1,
1-
0e
0'!
1"!
0^
0#!
1Y
0T
0$!
0R
0%!
0&!
0N
1f
0W
1\
1c
#640000
0"
0,
0-
#650000
1"
1,
1-
1'!
1N
1d
0c
#660000
0"
0,
0-
#670000
1"
1,
1-
1e
0'!
1&!
0N
0f
1c
#680000
0"
0,
0-
#690000
1"
1,
1-
1'!
1N
0d
0c
1Q
#700000
0"
0,
0-
#710000
1"
1,
1-
0e
0'!
1R
1%!
0&!
0N
1c
#720000
0"
0,
0-
#730000
1"
1,
1-
1'!
1N
1d
0c
#740000
0"
0,
0-
#750000
1"
1,
1-
1e
0'!
1&!
0N
1c
#760000
0"
0,
0-
#770000
1"
1,
1-
1'!
1N
0d
0c
1S
0Q
#780000
0"
0,
0-
#790000
1"
1,
1-
0e
0'!
1T
1$!
0R
0%!
0&!
0N
1c
#800000
0"
0,
0-
#810000
1"
1,
1-
1'!
1N
1d
0c
#820000
0"
0,
0-
#830000
1"
1,
1-
1e
0'!
1&!
0N
1c
#840000
0"
0,
0-
#850000
1"
1,
1-
1'!
1N
0d
0c
1Q
#860000
0"
0,
0-
#870000
1"
1,
1-
0e
0'!
1R
1%!
0&!
0N
1c
#880000
0"
0,
0-
#890000
1"
1,
1-
1'!
1N
1d
0c
#900000
0"
0,
0-
#910000
1"
1,
1-
1e
0'!
1&!
0N
1c
#920000
0"
0,
0-
#930000
1"
1,
1-
1'!
1N
1[
0d
0c
0S
0Q
1]
#940000
0"
0,
0-
#950000
1"
1,
1-
0e
0'!
1^
1#!
0T
0$!
0R
0%!
0&!
0N
1f
0\
1Z
1c
#960000
0"
0,
0-
#970000
1"
1,
1-
1'!
1N
0P
1_
0c
0]
0X
#976562
0!
03
1E
1@
1;
15
14
#980000
0"
0,
0-
#990000
1"
1,
1-
0'!
0"!
0^
0#!
0Y
0N
11!
10!
1<!
1@!
1A!
16
0F
1C
01
0[
0U
1P
0Z
1W
0_
1\
1c
1]
1X
12
0]
0X
04
17
05
#1000000
0"
0,
0-
#1010000
1"
1,
1-
1'!
1N
1?!
0@!
0A!
06
1d
14
07
0c
17
#1019779
1!
13
1D
0@
0E
#1020000
0"
0,
0-
#1030000
1"
1,
1-
1e
0'!
1&!
0N
01!
00!
1A!
1F
0C
11
0f
15
04
1c
02
0D
14
05
#1040000
0"
0,
0-
#1050000
1"
1,
1-
1'!
1N
0d
0c
1Q
#1060000
0"
0,
0-
#1070000
1"
1,
1-
0e
0'!
1R
1%!
0&!
0N
1c
#1080000
0"
0,
0-
#1090000
1"
1,
1-
1'!
1N
1d
0c
#1100000
0"
0,
0-
#1102896
0!
03
1E
1@
07
15
#1110000
1"
1,
1-
1e
0'!
1&!
0N
11!
10!
0?!
1@!
16
0F
1C
01
1c
12
04
17
05
#1120000
0"
0,
0-
#1130000
1"
1,
1-
1'!
1N
1?!
0@!
0A!
06
0d
14
07
0c
1S
0Q
17
#1140000
0"
0,
0-
#1150000
1"
1,
1-
0e
0'!
1T
1$!
0R
0%!
0&!
0N
1A!
15
04
1c
#1160000
0"
0,
0-
#1170000
1"
1,
1-
1'!
1N
1@!
0A!
1d
14
0c
#1180000
0"
0,
0-
#1190000
1"
1,
1-
1e
0'!
1&!
0N
1A!
1G
16
05
04
1c
07
1H
#1200000
0"
0,
0-
#1210000
1"
1,
1-
1'!
1N
1>!
0?!
0@!
0A!
0G
06
0d
14
17
0H
0c
1Q
07
1H
#1220000
0"
0,
0-
#1230000
1"
1,
1-
0e
0'!
1R
1%!
0&!
0N
1A!
15
04
1c
#1240000
0"
0,
0-
#1250000
1"
1,
1-
1'!
1N
1@!
0A!
1d
14
0c
#1260000
0"
0,
0-
#1270000
1"
1,
1-
1e
0'!
1&!
0N
1A!
16
05
04
1c
17
#1280000
0"
0,
0-
#1290000
1"
1,
1-
1'!
1N
1?!
0@!
0A!
06
1[
0d
14
07
0c
0S
0Q
1]
17
#1300000
0"
0,
0-
#1310000
1"
1,
1-
0e
0'!
1^
1#!
0T
0$!
0R
0%!
0&!
0N
1A!
1f
0\
15
04
1c
#1320000
0"
0,
0-
#1330000
1"
1,
1-
1'!
1N
1@!
0A!
1d
14
0c
#1340000
0"
0,
0-
#1350000
1"
1,
1-
1e
0'!
1&!
0N
1A!
1G
18
16
0f
05
04
1c
07
19
0H
#1360000
0"
0,
0-
#1370000
1"
1,
1-
1'!
1N
0>!
1=!
0?!
0@!
0A!
0G
08
06
0d
14
17
09
1H
0c
1Q
07
19
0H
#1380000
0"
0,
0-
#1390000
1"
1,
1-
0e
0'!
1R
1%!
0&!
0N
1A!
1I
1<
15
04
1c
1D
02
1B
0;
09
05
10
1/
0E
#1400000
0"
0,
0-
#1410000
1"
1,
1-
1'!
1N
01!
1>
1=
0<!
0=!
0A!
12!
13!
0I
0<
0C
0?
1l
1d
0/
1E
0@
0c
0D
12
0B
0E
1@
14
1/
#1420000
0"
0,
0-
#1430000
1"
1,
1-
1e
0'!
1&!
0N
1A!
15
04
1c
#1440000
0"
0,
0-
#1450000
1"
1,
1-
1'!
1N
1@!
0A!
0d
14
0c
1S
0Q
#1460000
0"
0,
0-
#1470000
1"
1,
1-
0e
0'!
1T
1$!
0R
0%!
0&!
0N
1A!
16
05
04
1c
17
#1480000
0"
0,
0-
#1490000
1"
1,
1-
1'!
1N
1?!
0@!
0A!
06
1d
14
07
0c
17
#1500000
0"
0,
0-
#1510000
1"
1,
1-
1e
0'!
1&!
0N
1A!
15
04
1c
#1520000
0"
0,
0-
#1530000
1"
1,
1-
1'!
1N
1@!
0A!
0d
14
0c
1Q
#1540000
0"
0,
0-
#1550000
1"
1,
1-
0e
0'!
1R
1%!
0&!
0N
1A!
1G
16
05
04
1c
07
1H
#1560000
0"
0,
0-
#1570000
1"
1,
1-
1'!
1N
1>!
0?!
0@!
0A!
0G
06
1d
14
17
0H
0c
07
1H
#1580000
0"
0,
0-
#1590000
1"
1,
1-
1e
0'!
1&!
0N
1A!
15
04
1c
#1600000
0"
0,
0-
#1610000
1"
1,
1-
1'!
1N
1@!
0A!
0[
1U
0d
14
0c
0S
0Q
1X
0]
#1620000
0"
0,
0-
#1630000
1"
1,
1-
0e
0'!
1"!
0^
0#!
1Y
0T
0$!
0R
0%!
0&!
0N
1A!
16
1f
0W
1\
05
04
1c
17
#1640000
0"
0,
0-
#1650000
1"
1,
1-
1'!
1N
1?!
0@!
0A!
06
1d
14
07
0c
17
#1660000
0"
0,
0-
#1670000
1"
1,
1-
1e
0'!
1&!
0N
1A!
0f
15
04
1c
#1680000
0"
0,
0-
#1690000
1"
1,
1-
1'!
1N
1@!
0A!
0d
14
0c
1Q
#1700000
0"
0,
0-
#1710000
1"
1,
1-
0e
0'!
1R
1%!
0&!
0N
1A!
1G
18
16
05
04
1c
07
19
0H
#1720000
0"
0,
0-
#1730000
1"
1,
1-
1'!
1N
0>!
1=!
0?!
0@!
0A!
0G
08
06
1d
14
17
09
1H
0c
07
19
0H
#1740000
0"
0,
0-
#1750000
1"
1,
1-
1e
0'!
1&!
0N
1A!
15
04
1c
#1760000
0"
0,
0-
#1770000
1"
1,
1-
1'!
1N
1@!
0A!
0d
14
0c
1S
0Q
#1780000
0"
0,
0-
#1790000
1"
1,
1-
0e
0'!
1T
1$!
0R
0%!
0&!
0N
1A!
16
05
04
1c
17
#1800000
0"
0,
0-
#1810000
1"
1,
1-
1'!
1N
1?!
0@!
0A!
06
1d
14
07
0c
17
#1820000
0"
0,
0-
#1830000
1"
1,
1-
1e
0'!
1&!
0N
1A!
15
04
1c
#1840000
0"
0,
0-
#1850000
1"
1,
1-
1'!
1N
1@!
0A!
0d
14
0c
1Q
#1860000
0"
0,
0-
#1870000
1"
1,
1-
0e
0'!
1R
1%!
0&!
0N
1A!
1G
16
05
04
1c
07
1H
#1880000
0"
0,
0-
#1890000
1"
1,
1-
1'!
1N
1>!
0?!
0@!
0A!
0G
06
1d
14
17
0H
0c
07
1H
#1900000
0"
0,
0-
#1910000
1"
1,
1-
1e
0'!
1&!
0N
1A!
15
04
1c
#1920000
0"
0,
0-
#1930000
1"
1,
1-
1'!
1N
1@!
0A!
1[
0d
14
0c
0S
0Q
1]
#1940000
0"
0,
0-
#1950000
1"
1,
1-
0e
0'!
1^
1#!
0T
0$!
0R
0%!
0&!
0N
1A!
16
1f
0\
1Z
05
04
1c
17
#1953124
1!
13
#1960000
0"
0,
0-
#1970000
1"
1,
1-
1'!
1N
1?!
0@!
0A!
06
0P
1_
14
07
0c
0]
0X
17
#1980000
0"
0,
0-
#1990000
1"
1,
1-
0'!
0"!
0^
0#!
0Y
0N
1A!
0[
0U
1P
0Z
1W
0_
1\
15
04
1c
1]
1X
0]
0X
#2000000
0"
0,
0-
#2010000
1"
1,
1-
1'!
1N
1@!
0A!
1d
14
0c
#2020000
0"
0,
0-
#2030000
1"
1,
1-
1e
0'!
1&!
0N
1A!
1G
1:
18
16
0f
05
04
1c
07
09
1;
0H
#2040000
0"
0,
0-
#2050000
1"
1,
1-
1'!
1N
0>!
1<!
0=!
0?!
0@!
0A!
0G
0:
08
06
0d
14
17
19
0;
1H
0c
1Q
07
09
1;
0H
#2060000
0"
0,
0-
#2070000
1"
1,
1-
0e
0'!
1R
1%!
0&!
0N
1A!
15
04
1c
#2080000
0"
0,
0-
#2090000
1"
1,
1-
1'!
1N
1@!
0A!
1d
14
0c
#2100000
0"
0,
0-
#2110000
1"
1,
1-
1e
0'!
1&!
0N
1A!
16
05
04
1c
17
#2120000
0"
0,
0-
#2130000
1"
1,
1-
1'!
1N
1?!
0@!
0A!
06
0d
14
07
0c
1S
0Q
17
#2140000
0"
0,
0-
#2150000
1"
1,
1-
0e
0'!
1T
1$!
0R
0%!
0&!
0N
1A!
15
04
1c
#2160000
0"
0,
0-
#2170000
1"
1,
1-
1'!
1N
1@!
0A!
1d
14
0c
#2180000
0"
0,
0-
#2190000
1"
1,
1-
1e
0'!
1&!
0N
1A!
1G
16
05
04
1c
07
1H
#2200000
0"
0,
0-
#2210000
1"
1,
1-
1'!
1N
1>!
0?!
0@!
0A!
0G
06
0d
14
17
0H
0c
1Q
07
1H
#2220000
0"
0,
0-
#2230000
1"
1,
1-
0e
0'!
1R
1%!
0&!
0N
1A!
15
04
1c
#2240000
0"
0,
0-
#2250000
1"
1,
1-
1'!
1N
1@!
0A!
1d
14
0c
#2260000
0"
0,
0-
#2270000
1"
1,
1-
1e
0'!
1&!
0N
1A!
16
05
04
1c
17
#2280000
0"
0,
0-
#2290000
1"
1,
1-
1'!
1N
1?!
0@!
0A!
06
1[
0d
14
07
0c
0S
0Q
1]
17
#2300000
0"
0,
0-
#2310000
1"
1,
1-
0e
0'!
1^
1#!
0T
0$!
0R
0%!
0&!
0N
1A!
1f
0\
15
04
1c
#2320000
0"
0,
0-
#2330000
1"
1,
1-
1'!
1N
1@!
0A!
1d
14
0c
#2340000
0"
0,
0-
#2350000
1"
1,
1-
1e
0'!
1&!
0N
1A!
1G
18
16
0f
05
04
1c
07
19
0H
#2360000
0"
0,
0-
#2370000
1"
1,
1-
1'!
1N
0>!
1=!
0?!
0@!
0A!
0G
08
06
0d
14
17
09
1H
0c
1Q
07
19
0H
#2380000
0"
0,
0-
#2390000
1"
1,
1-
0e
0'!
1R
1%!
0&!
0N
1A!
1I
1<
15
04
1c
02
1m
1B
0;
09
05
0/
#2400000
0"
0,
0-
#2410000
1"
1,
1-
1B!
1'!
1N
0=
0<!
0=!
0A!
03!
0I
0<
1d
00
1/
0c
12
0m
0B
14
10
0/
#2420000
0"
0,
0-
#2430000
1"
1,
1-
1e
0'!
1&!
0N
1A!
15
04
1c
#2440000
0"
0,
0-
#2450000
1"
1,
1-
1'!
1N
1@!
0A!
0d
14
0c
1S
0Q
#2460000
0"
0,
0-
#2470000
1"
1,
1-
0e
0'!
1T
1$!
0R
0%!
0&!
0N
1A!
16
05
04
1c
17
#2480000
0"
0,
0-
#2490000
1"
1,
1-
1'!
1N
1?!
0@!
0A!
06
1d
14
07
0c
17
#2500000
0"
0,
0-
#2510000
1"
1,
1-
1e
0'!
1&!
0N
1A!
15
04
1c
#2520000
0"
0,
0-
#2530000
1"
1,
1-
1'!
1N
1@!
0A!
0d
14
0c
1Q
#2540000
0"
0,
0-
#2550000
1"
1,
1-
0e
0'!
1R
1%!
0&!
0N
1A!
1G
16
05
04
1c
07
1H
#2560000
0"
0,
0-
#2570000
1"
1,
1-
1'!
1N
1>!
0?!
0@!
0A!
0G
06
1d
14
17
0H
0c
07
1H
#2580000
0"
0,
0-
#2590000
1"
1,
1-
1e
0'!
1&!
0N
1A!
15
04
1c
#2600000
0"
0,
0-
#2610000
1"
1,
1-
1'!
1N
1@!
0A!
0[
1U
0d
14
0c
0S
0Q
1X
0]
#2620000
0"
0,
0-
#2630000
1"
1,
1-
0e
0'!
1"!
0^
0#!
1Y
0T
0$!
0R
0%!
0&!
0N
1A!
16
1f
0W
1\
05
04
1c
17
#2640000
0"
0,
0-
#2650000
1"
1,
1-
1'!
1N
1?!
0@!
0A!
06
1d
14
07
0c
17
#2660000
0"
0,
0-
#2670000
1"
1,
1-
1e
0'!
1&!
0N
1A!
0f
15
04
1c
#2680000
0"
0,
0-
#2690000
1"
1,
1-
1'!
1N
1@!
0A!
0d
14
0c
1Q
#2700000
0"
0,
0-
#2710000
1"
1,
1-
0e
0'!
1R
1%!
0&!
0N
1A!
1G
18
16
05
04
1c
07
19
0H
#2720000
0"
0,
0-
#2730000
1"
1,
1-
1'!
1N
0>!
1=!
0?!
0@!
0A!
0G
08
06
1d
14
17
09
1H
0c
07
19
0H
#2740000
0"
0,
0-
#2750000
1"
1,
1-
1e
0'!
1&!
0N
1A!
15
04
1c
#2760000
0"
0,
0-
#2770000
1"
1,
1-
1'!
1N
1@!
0A!
0d
14
0c
1S
0Q
#2780000
0"
0,
0-
#2790000
1"
1,
1-
0e
0'!
1T
1$!
0R
0%!
0&!
0N
1A!
16
05
04
1c
17
#2800000
0"
0,
0-
#2810000
1"
1,
1-
1'!
1N
1?!
0@!
0A!
06
1d
14
07
0c
17
#2820000
0"
0,
0-
#2830000
1"
1,
1-
1e
0'!
1&!
0N
1A!
15
04
1c
#2840000
0"
0,
0-
#2850000
1"
1,
1-
1'!
1N
1@!
0A!
0d
14
0c
1Q
#2860000
0"
0,
0-
#2870000
1"
1,
1-
0e
0'!
1R
1%!
0&!
0N
1A!
1G
16
05
04
1c
07
1H
#2880000
0"
0,
0-
#2890000
1"
1,
1-
1'!
1N
1>!
0?!
0@!
0A!
0G
06
1d
14
17
0H
0c
07
1H
#2900000
0"
0,
0-
#2910000
1"
1,
1-
1e
0'!
1&!
0N
1A!
15
04
1c
#2920000
0"
0,
0-
#2930000
1"
1,
1-
1'!
1N
1@!
0A!
1[
0d
14
0c
0S
0Q
1]
#2940000
0"
0,
0-
#2950000
1"
1,
1-
0e
0'!
1^
1#!
0T
0$!
0R
0%!
0&!
0N
1A!
16
1f
0\
1Z
05
04
1c
17
#2960000
0"
0,
0-
#2970000
1"
1,
1-
1'!
1N
1?!
0@!
0A!
06
0P
1_
14
07
0c
0]
0X
17
#2980000
0"
0,
0-
#2990000
1"
1,
1-
0'!
0"!
0^
0#!
0Y
0N
1A!
0[
0U
1P
0Z
1W
0_
1\
15
04
1c
1]
1X
0]
0X
#3000000
0"
0,
0-
#3010000
1"
1,
1-
1'!
1N
1@!
0A!
1d
14
0c
#3020000
0"
0,
0-
#3030000
1"
1,
1-
1e
0'!
1&!
0N
1A!
1G
1:
18
16
0f
05
04
1c
07
09
1;
0H
#3040000
0"
0,
0-
#3050000
1"
1,
1-
1'!
1N
0>!
1<!
0=!
0?!
0@!
0A!
0G
0:
08
06
0d
14
17
19
0;
1H
0c
1Q
07
09
1;
0H
#3060000
0"
0,
0-
#3070000
1"
1,
1-
0e
0'!
1R
1%!
0&!
0N
1A!
15
04
1c
#3080000
0"
0,
0-
#3090000
1"
1,
1-
1'!
1N
1@!
0A!
1d
14
0c
#3100000
0"
0,
0-
#3110000
1"
1,
1-
1e
0'!
1&!
0N
1A!
16
05
04
1c
17
#3120000
0"
0,
0-
#3130000
1"
1,
1-
1'!
1N
1?!
0@!
0A!
06
0d
14
07
0c
1S
0Q
17
#3140000
0"
0,
0-
#3150000
1"
1,
1-
0e
0'!
1T
1$!
0R
0%!
0&!
0N
1A!
15
04
1c
#3160000
0"
0,
0-
#3170000
1"
1,
1-
1'!
1N
1@!
0A!
1d
14
0c
#3180000
0"
0,
0-
#3190000
1"
1,
1-
1e
0'!
1&!
0N
1A!
1G
16
05
04
1c
07
1H
#3200000
0"
0,
0-
#3210000
1"
1,
1-
1'!
1N
1>!
0?!
0@!
0A!
0G
06
0d
14
17
0H
0c
1Q
07
1H
#3220000
0"
0,
0-
#3230000
1"
1,
1-
0e
0'!
1R
1%!
0&!
0N
1A!
15
04
1c
#3240000
0"
0,
0-
#3250000
1"
1,
1-
1'!
1N
1@!
0A!
1d
14
0c
#3260000
0"
0,
0-
#3270000
1"
1,
1-
1e
0'!
1&!
0N
1A!
16
05
04
1c
17
#3280000
0"
0,
0-
#3290000
1"
1,
1-
1'!
1N
1?!
0@!
0A!
06
1[
0d
14
07
0c
0S
0Q
1]
17
#3300000
0"
0,
0-
#3310000
1"
1,
1-
0e
0'!
1^
1#!
0T
0$!
0R
0%!
0&!
0N
1A!
1f
0\
15
04
1c
#3320000
0"
0,
0-
#3330000
1"
1,
1-
1'!
1N
1@!
0A!
1d
14
0c
#3340000
0"
0,
0-
#3350000
1"
1,
1-
1e
0'!
1&!
0N
1A!
1G
18
16
0f
05
04
1c
07
19
0H
#3360000
0"
0,
0-
#3370000
1"
1,
1-
1'!
1N
0>!
1=!
0?!
0@!
0A!
0G
08
06
0d
14
17
09
1H
0c
1Q
07
19
0H
#3380000
0"
0,
0-
#3390000
1"
1,
1-
0e
0'!
1R
1%!
0&!
0N
1A!
1I
1<
15
04
1c
02
1m
1B
0;
09
05
00
1/
#3400000
0"
0,
0-
#3410000
1"
1,
1-
1C!
1'!
1N
0>
1=
0<!
0=!
0A!
02!
13!
0I
0<
1d
0/
0c
12
0m
0B
14
1/
#3420000
0"
0,
0-
